﻿# Wavefront OBJ file automatically generated by Tiled2Unity

# Vertices (Count = 2056)
v -238 -96 0
v -240 -96 0
v -240 -94 0
v -238 -94 0
v -238 -98 0
v -240 -98 0
v -238 -100 0
v -240 -100 0
v -238 -102 0
v -240 -102 0
v 0 -102 0
v -2 -102 0
v -2 -100 0
v 0 -100 0
v -238 -104 0
v -240 -104 0
v 0 -104 0
v -2 -104 0
v -238 -106 0
v -240 -106 0
v 0 -106 0
v -2 -106 0
v -238 -108 0
v -240 -108 0
v 0 -108 0
v -2 -108 0
v -238 -110 0
v -240 -110 0
v 0 -110 0
v -2 -110 0
v -238 -112 0
v -240 -112 0
v 0 -112 0
v -2 -112 0
v -238 -114 0
v -240 -114 0
v 0 -114 0
v -2 -114 0
v -238 -116 0
v -240 -116 0
v 0 -116 0
v -2 -116 0
v -238 -118 0
v -240 -118 0
v 0 -118 0
v -2 -118 0
v -238 -120 0
v -240 -120 0
v 0 -120 0
v -2 -120 0
v -238 -122 0
v -240 -122 0
v 0 -122 0
v -2 -122 0
v -238 -124 0
v -240 -124 0
v 0 -124 0
v -2 -124 0
v -238 -126 0
v -240 -126 0
v 0 -126 0
v -2 -126 0
v -238 -128 0
v -240 -128 0
v 0 -128 0
v -2 -128 0
v -238 -130 0
v -240 -130 0
v -236 -130 0
v -236 -128 0
v -234 -130 0
v -234 -128 0
v -232 -130 0
v -232 -128 0
v -230 -130 0
v -230 -128 0
v -228 -130 0
v -228 -128 0
v -226 -130 0
v -226 -128 0
v -124 -130 0
v -126 -130 0
v -126 -128 0
v -124 -128 0
v -72 -130 0
v -74 -130 0
v -74 -128 0
v -72 -128 0
v -70 -130 0
v -70 -128 0
v -54 -130 0
v -56 -130 0
v -56 -128 0
v -54 -128 0
v 0 -130 0
v -2 -130 0
v -238 -132 0
v -240 -132 0
v -236 -132 0
v -234 -132 0
v -232 -132 0
v -230 -132 0
v -228 -132 0
v -226 -132 0
v -224 -132 0
v -224 -130 0
v -124 -132 0
v -126 -132 0
v -122 -132 0
v -122 -130 0
v -106 -132 0
v -108 -132 0
v -108 -130 0
v -106 -130 0
v -104 -132 0
v -104 -130 0
v -102 -132 0
v -102 -130 0
v -100 -132 0
v -100 -130 0
v -96 -132 0
v -98 -132 0
v -98 -130 0
v -96 -130 0
v -94 -132 0
v -94 -130 0
v -88 -132 0
v -90 -132 0
v -90 -130 0
v -88 -130 0
v -84 -132 0
v -86 -132 0
v -86 -130 0
v -84 -130 0
v -82 -132 0
v -82 -130 0
v -80 -132 0
v -80 -130 0
v -78 -132 0
v -78 -130 0
v -72 -132 0
v -74 -132 0
v -70 -132 0
v -66 -132 0
v -68 -132 0
v -68 -130 0
v -66 -130 0
v -64 -132 0
v -64 -130 0
v -62 -132 0
v -62 -130 0
v -60 -132 0
v -60 -130 0
v -58 -132 0
v -58 -130 0
v -56 -132 0
v -54 -132 0
v -52 -132 0
v -52 -130 0
v 0 -132 0
v -2 -132 0
v -238 -134 0
v -240 -134 0
v -236 -134 0
v -234 -134 0
v -232 -134 0
v -230 -134 0
v -228 -134 0
v -226 -134 0
v -224 -134 0
v -222 -134 0
v -222 -132 0
v -218 -134 0
v -220 -134 0
v -220 -132 0
v -218 -132 0
v -216 -134 0
v -216 -132 0
v -214 -134 0
v -214 -132 0
v -210 -134 0
v -212 -134 0
v -212 -132 0
v -210 -132 0
v -208 -134 0
v -208 -132 0
v -206 -134 0
v -206 -132 0
v -202 -134 0
v -204 -134 0
v -204 -132 0
v -202 -132 0
v -200 -134 0
v -200 -132 0
v -198 -134 0
v -198 -132 0
v -194 -134 0
v -196 -134 0
v -196 -132 0
v -194 -132 0
v -192 -134 0
v -192 -132 0
v -190 -134 0
v -190 -132 0
v -188 -134 0
v -188 -132 0
v -186 -134 0
v -186 -132 0
v -184 -134 0
v -184 -132 0
v -182 -134 0
v -182 -132 0
v -180 -134 0
v -180 -132 0
v -178 -134 0
v -178 -132 0
v -176 -134 0
v -176 -132 0
v -174 -134 0
v -174 -132 0
v -172 -134 0
v -172 -132 0
v -170 -134 0
v -170 -132 0
v -168 -134 0
v -168 -132 0
v -166 -134 0
v -166 -132 0
v -164 -134 0
v -164 -132 0
v -162 -134 0
v -162 -132 0
v -160 -134 0
v -160 -132 0
v -158 -134 0
v -158 -132 0
v -156 -134 0
v -156 -132 0
v -154 -134 0
v -154 -132 0
v -150 -134 0
v -152 -134 0
v -152 -132 0
v -150 -132 0
v -148 -134 0
v -148 -132 0
v -146 -134 0
v -146 -132 0
v -144 -134 0
v -144 -132 0
v -142 -134 0
v -142 -132 0
v -140 -134 0
v -140 -132 0
v -136 -134 0
v -138 -134 0
v -138 -132 0
v -136 -132 0
v -132 -134 0
v -134 -134 0
v -134 -132 0
v -132 -132 0
v -130 -134 0
v -130 -132 0
v -128 -134 0
v -128 -132 0
v -126 -134 0
v -124 -134 0
v -122 -134 0
v -120 -134 0
v -120 -132 0
v -118 -134 0
v -118 -132 0
v -116 -134 0
v -116 -132 0
v -114 -134 0
v -114 -132 0
v -112 -134 0
v -112 -132 0
v -110 -134 0
v -110 -132 0
v -108 -134 0
v -106 -134 0
v -104 -134 0
v -102 -134 0
v -100 -134 0
v -98 -134 0
v -96 -134 0
v -94 -134 0
v -92 -134 0
v -92 -132 0
v -90 -134 0
v -88 -134 0
v -86 -134 0
v -84 -134 0
v -82 -134 0
v -80 -134 0
v -78 -134 0
v -76 -134 0
v -76 -132 0
v -74 -134 0
v -72 -134 0
v -70 -134 0
v -68 -134 0
v -66 -134 0
v -64 -134 0
v -62 -134 0
v -60 -134 0
v -58 -134 0
v -56 -134 0
v -54 -134 0
v -52 -134 0
v -50 -134 0
v -50 -132 0
v -48 -134 0
v -48 -132 0
v -46 -134 0
v -46 -132 0
v -44 -134 0
v -44 -132 0
v -42 -134 0
v -42 -132 0
v -40 -134 0
v -40 -132 0
v -38 -134 0
v -38 -132 0
v -36 -134 0
v -36 -132 0
v -34 -134 0
v -34 -132 0
v -32 -134 0
v -32 -132 0
v -30 -134 0
v -30 -132 0
v -28 -134 0
v -28 -132 0
v -26 -134 0
v -26 -132 0
v -24 -134 0
v -24 -132 0
v -22 -134 0
v -22 -132 0
v -20 -134 0
v -20 -132 0
v -18 -134 0
v -18 -132 0
v -16 -134 0
v -16 -132 0
v -14 -134 0
v -14 -132 0
v -12 -134 0
v -12 -132 0
v -10 -134 0
v -10 -132 0
v -8 -134 0
v -8 -132 0
v -6 -134 0
v -6 -132 0
v -4 -134 0
v -4 -132 0
v -2 -134 0
v 0 -134 0
v -238 -136 0
v -240 -136 0
v -236 -136 0
v -234 -136 0
v -232 -136 0
v -230 -136 0
v -228 -136 0
v -226 -136 0
v -224 -136 0
v -222 -136 0
v -220 -136 0
v -218 -136 0
v -216 -136 0
v -214 -136 0
v -212 -136 0
v -210 -136 0
v -208 -136 0
v -206 -136 0
v -204 -136 0
v -202 -136 0
v -200 -136 0
v -198 -136 0
v -196 -136 0
v -194 -136 0
v -192 -136 0
v -190 -136 0
v -188 -136 0
v -186 -136 0
v -184 -136 0
v -182 -136 0
v -180 -136 0
v -178 -136 0
v -176 -136 0
v -174 -136 0
v -172 -136 0
v -170 -136 0
v -168 -136 0
v -166 -136 0
v -164 -136 0
v -162 -136 0
v -160 -136 0
v -158 -136 0
v -156 -136 0
v -154 -136 0
v -152 -136 0
v -150 -136 0
v -148 -136 0
v -146 -136 0
v -144 -136 0
v -142 -136 0
v -140 -136 0
v -136 -136 0
v -138 -136 0
v -132 -136 0
v -134 -136 0
v -130 -136 0
v -128 -136 0
v -126 -136 0
v -124 -136 0
v -122 -136 0
v -120 -136 0
v -118 -136 0
v -116 -136 0
v -114 -136 0
v -112 -136 0
v -110 -136 0
v -108 -136 0
v -106 -136 0
v -104 -136 0
v -102 -136 0
v -100 -136 0
v -98 -136 0
v -96 -136 0
v -94 -136 0
v -92 -136 0
v -90 -136 0
v -88 -136 0
v -86 -136 0
v -84 -136 0
v -82 -136 0
v -80 -136 0
v -78 -136 0
v -76 -136 0
v -74 -136 0
v -72 -136 0
v -70 -136 0
v -68 -136 0
v -66 -136 0
v -64 -136 0
v -62 -136 0
v -60 -136 0
v -58 -136 0
v -56 -136 0
v -54 -136 0
v -52 -136 0
v -50 -136 0
v -48 -136 0
v -46 -136 0
v -44 -136 0
v -42 -136 0
v -40 -136 0
v -38 -136 0
v -36 -136 0
v -34 -136 0
v -32 -136 0
v -30 -136 0
v -28 -136 0
v -26 -136 0
v -24 -136 0
v -22 -136 0
v -20 -136 0
v -18 -136 0
v -16 -136 0
v -14 -136 0
v -12 -136 0
v -10 -136 0
v -8 -136 0
v -6 -136 0
v -4 -136 0
v -2 -136 0
v 0 -136 0
v -238 -138 0
v -240 -138 0
v -236 -138 0
v -234 -138 0
v -232 -138 0
v -230 -138 0
v -228 -138 0
v -226 -138 0
v -224 -138 0
v -222 -138 0
v -220 -138 0
v -218 -138 0
v -216 -138 0
v -214 -138 0
v -212 -138 0
v -210 -138 0
v -208 -138 0
v -206 -138 0
v -204 -138 0
v -202 -138 0
v -200 -138 0
v -198 -138 0
v -196 -138 0
v -194 -138 0
v -192 -138 0
v -190 -138 0
v -188 -138 0
v -186 -138 0
v -184 -138 0
v -182 -138 0
v -180 -138 0
v -178 -138 0
v -176 -138 0
v -174 -138 0
v -172 -138 0
v -170 -138 0
v -168 -138 0
v -166 -138 0
v -164 -138 0
v -162 -138 0
v -160 -138 0
v -158 -138 0
v -156 -138 0
v -154 -138 0
v -152 -138 0
v -150 -138 0
v -148 -138 0
v -146 -138 0
v -144 -138 0
v -142 -138 0
v -140 -138 0
v -136 -138 0
v -138 -138 0
v -132 -138 0
v -134 -138 0
v -130 -138 0
v -128 -138 0
v -126 -138 0
v -124 -138 0
v -122 -138 0
v -120 -138 0
v -118 -138 0
v -116 -138 0
v -114 -138 0
v -112 -138 0
v -110 -138 0
v -108 -138 0
v -106 -138 0
v -104 -138 0
v -102 -138 0
v -100 -138 0
v -98 -138 0
v -96 -138 0
v -94 -138 0
v -92 -138 0
v -90 -138 0
v -88 -138 0
v -86 -138 0
v -84 -138 0
v -82 -138 0
v -80 -138 0
v -78 -138 0
v -76 -138 0
v -74 -138 0
v -72 -138 0
v -70 -138 0
v -68 -138 0
v -66 -138 0
v -64 -138 0
v -62 -138 0
v -60 -138 0
v -58 -138 0
v -56 -138 0
v -54 -138 0
v -52 -138 0
v -50 -138 0
v -48 -138 0
v -46 -138 0
v -44 -138 0
v -42 -138 0
v -40 -138 0
v -38 -138 0
v -36 -138 0
v -34 -138 0
v -32 -138 0
v -30 -138 0
v -28 -138 0
v -26 -138 0
v -24 -138 0
v -22 -138 0
v -20 -138 0
v -18 -138 0
v -16 -138 0
v -14 -138 0
v -12 -138 0
v -10 -138 0
v -8 -138 0
v -6 -138 0
v -4 -138 0
v -2 -138 0
v 0 -138 0
v -238 -140 0
v -240 -140 0
v -236 -140 0
v -234 -140 0
v -232 -140 0
v -230 -140 0
v -228 -140 0
v -226 -140 0
v -224 -140 0
v -222 -140 0
v -220 -140 0
v -218 -140 0
v -216 -140 0
v -214 -140 0
v -212 -140 0
v -210 -140 0
v -208 -140 0
v -206 -140 0
v -204 -140 0
v -202 -140 0
v -200 -140 0
v -198 -140 0
v -196 -140 0
v -194 -140 0
v -192 -140 0
v -190 -140 0
v -188 -140 0
v -186 -140 0
v -184 -140 0
v -182 -140 0
v -180 -140 0
v -178 -140 0
v -176 -140 0
v -174 -140 0
v -172 -140 0
v -170 -140 0
v -168 -140 0
v -166 -140 0
v -164 -140 0
v -162 -140 0
v -160 -140 0
v -158 -140 0
v -156 -140 0
v -154 -140 0
v -152 -140 0
v -150 -140 0
v -148 -140 0
v -146 -140 0
v -144 -140 0
v -142 -140 0
v -140 -140 0
v -136 -140 0
v -138 -140 0
v -132 -140 0
v -134 -140 0
v -130 -140 0
v -128 -140 0
v -126 -140 0
v -124 -140 0
v -122 -140 0
v -120 -140 0
v -118 -140 0
v -116 -140 0
v -114 -140 0
v -112 -140 0
v -110 -140 0
v -108 -140 0
v -106 -140 0
v -104 -140 0
v -102 -140 0
v -100 -140 0
v -98 -140 0
v -96 -140 0
v -94 -140 0
v -92 -140 0
v -90 -140 0
v -88 -140 0
v -86 -140 0
v -84 -140 0
v -82 -140 0
v -80 -140 0
v -78 -140 0
v -76 -140 0
v -74 -140 0
v -72 -140 0
v -70 -140 0
v -68 -140 0
v -66 -140 0
v -64 -140 0
v -62 -140 0
v -60 -140 0
v -58 -140 0
v -56 -140 0
v -54 -140 0
v -52 -140 0
v -50 -140 0
v -48 -140 0
v -46 -140 0
v -44 -140 0
v -42 -140 0
v -40 -140 0
v -38 -140 0
v -36 -140 0
v -34 -140 0
v -32 -140 0
v -30 -140 0
v -28 -140 0
v -26 -140 0
v -24 -140 0
v -22 -140 0
v -20 -140 0
v -18 -140 0
v -16 -140 0
v -14 -140 0
v -12 -140 0
v -10 -140 0
v -8 -140 0
v -6 -140 0
v -4 -140 0
v -2 -140 0
v 0 -140 0
v -238 -142 0
v -240 -142 0
v -236 -142 0
v -234 -142 0
v -232 -142 0
v -230 -142 0
v -228 -142 0
v -226 -142 0
v -224 -142 0
v -222 -142 0
v -220 -142 0
v -218 -142 0
v -216 -142 0
v -214 -142 0
v -212 -142 0
v -210 -142 0
v -208 -142 0
v -206 -142 0
v -204 -142 0
v -202 -142 0
v -200 -142 0
v -198 -142 0
v -196 -142 0
v -194 -142 0
v -192 -142 0
v -190 -142 0
v -188 -142 0
v -186 -142 0
v -184 -142 0
v -182 -142 0
v -180 -142 0
v -178 -142 0
v -176 -142 0
v -174 -142 0
v -172 -142 0
v -170 -142 0
v -168 -142 0
v -166 -142 0
v -164 -142 0
v -162 -142 0
v -160 -142 0
v -158 -142 0
v -156 -142 0
v -154 -142 0
v -152 -142 0
v -150 -142 0
v -148 -142 0
v -146 -142 0
v -144 -142 0
v -142 -142 0
v -140 -142 0
v -136 -142 0
v -138 -142 0
v -132 -142 0
v -134 -142 0
v -130 -142 0
v -128 -142 0
v -126 -142 0
v -124 -142 0
v -122 -142 0
v -120 -142 0
v -118 -142 0
v -116 -142 0
v -114 -142 0
v -112 -142 0
v -110 -142 0
v -108 -142 0
v -106 -142 0
v -104 -142 0
v -102 -142 0
v -100 -142 0
v -98 -142 0
v -96 -142 0
v -94 -142 0
v -92 -142 0
v -90 -142 0
v -88 -142 0
v -86 -142 0
v -84 -142 0
v -82 -142 0
v -80 -142 0
v -78 -142 0
v -76 -142 0
v -74 -142 0
v -72 -142 0
v -70 -142 0
v -68 -142 0
v -66 -142 0
v -64 -142 0
v -62 -142 0
v -60 -142 0
v -58 -142 0
v -56 -142 0
v -54 -142 0
v -52 -142 0
v -50 -142 0
v -48 -142 0
v -46 -142 0
v -44 -142 0
v -42 -142 0
v -40 -142 0
v -38 -142 0
v -36 -142 0
v -34 -142 0
v -32 -142 0
v -30 -142 0
v -28 -142 0
v -26 -142 0
v -24 -142 0
v -22 -142 0
v -20 -142 0
v -18 -142 0
v -16 -142 0
v -14 -142 0
v -12 -142 0
v -10 -142 0
v -8 -142 0
v -6 -142 0
v -4 -142 0
v -2 -142 0
v 0 -142 0
v -238 -144 0
v -240 -144 0
v -236 -144 0
v -234 -144 0
v -232 -144 0
v -230 -144 0
v -228 -144 0
v -226 -144 0
v -224 -144 0
v -222 -144 0
v -220 -144 0
v -218 -144 0
v -216 -144 0
v -214 -144 0
v -212 -144 0
v -210 -144 0
v -208 -144 0
v -206 -144 0
v -204 -144 0
v -202 -144 0
v -200 -144 0
v -198 -144 0
v -196 -144 0
v -194 -144 0
v -192 -144 0
v -190 -144 0
v -188 -144 0
v -186 -144 0
v -184 -144 0
v -182 -144 0
v -180 -144 0
v -178 -144 0
v -176 -144 0
v -174 -144 0
v -172 -144 0
v -170 -144 0
v -168 -144 0
v -166 -144 0
v -164 -144 0
v -162 -144 0
v -160 -144 0
v -158 -144 0
v -156 -144 0
v -154 -144 0
v -152 -144 0
v -150 -144 0
v -148 -144 0
v -146 -144 0
v -144 -144 0
v -142 -144 0
v -140 -144 0
v -136 -144 0
v -138 -144 0
v -132 -144 0
v -134 -144 0
v -130 -144 0
v -128 -144 0
v -126 -144 0
v -124 -144 0
v -122 -144 0
v -120 -144 0
v -118 -144 0
v -116 -144 0
v -114 -144 0
v -112 -144 0
v -110 -144 0
v -108 -144 0
v -106 -144 0
v -104 -144 0
v -102 -144 0
v -100 -144 0
v -98 -144 0
v -96 -144 0
v -94 -144 0
v -92 -144 0
v -90 -144 0
v -88 -144 0
v -86 -144 0
v -84 -144 0
v -82 -144 0
v -80 -144 0
v -78 -144 0
v -76 -144 0
v -74 -144 0
v -72 -144 0
v -70 -144 0
v -68 -144 0
v -66 -144 0
v -64 -144 0
v -62 -144 0
v -60 -144 0
v -58 -144 0
v -56 -144 0
v -54 -144 0
v -52 -144 0
v -50 -144 0
v -48 -144 0
v -46 -144 0
v -44 -144 0
v -42 -144 0
v -40 -144 0
v -38 -144 0
v -36 -144 0
v -34 -144 0
v -32 -144 0
v -30 -144 0
v -28 -144 0
v -26 -144 0
v -24 -144 0
v -22 -144 0
v -20 -144 0
v -18 -144 0
v -16 -144 0
v -14 -144 0
v -12 -144 0
v -10 -144 0
v -8 -144 0
v -6 -144 0
v -4 -144 0
v -2 -144 0
v 0 -144 0
v -238 -146 0
v -240 -146 0
v -236 -146 0
v -234 -146 0
v -232 -146 0
v -230 -146 0
v -228 -146 0
v -226 -146 0
v -224 -146 0
v -222 -146 0
v -220 -146 0
v -218 -146 0
v -216 -146 0
v -214 -146 0
v -212 -146 0
v -210 -146 0
v -208 -146 0
v -206 -146 0
v -204 -146 0
v -202 -146 0
v -200 -146 0
v -198 -146 0
v -196 -146 0
v -194 -146 0
v -192 -146 0
v -190 -146 0
v -188 -146 0
v -186 -146 0
v -184 -146 0
v -182 -146 0
v -180 -146 0
v -178 -146 0
v -176 -146 0
v -174 -146 0
v -172 -146 0
v -170 -146 0
v -168 -146 0
v -166 -146 0
v -164 -146 0
v -162 -146 0
v -160 -146 0
v -158 -146 0
v -156 -146 0
v -154 -146 0
v -152 -146 0
v -150 -146 0
v -148 -146 0
v -146 -146 0
v -144 -146 0
v -142 -146 0
v -140 -146 0
v -136 -146 0
v -138 -146 0
v -132 -146 0
v -134 -146 0
v -130 -146 0
v -128 -146 0
v -126 -146 0
v -124 -146 0
v -122 -146 0
v -120 -146 0
v -118 -146 0
v -116 -146 0
v -114 -146 0
v -112 -146 0
v -110 -146 0
v -108 -146 0
v -106 -146 0
v -104 -146 0
v -102 -146 0
v -100 -146 0
v -98 -146 0
v -96 -146 0
v -94 -146 0
v -92 -146 0
v -90 -146 0
v -88 -146 0
v -86 -146 0
v -84 -146 0
v -82 -146 0
v -80 -146 0
v -78 -146 0
v -76 -146 0
v -74 -146 0
v -72 -146 0
v -70 -146 0
v -68 -146 0
v -66 -146 0
v -64 -146 0
v -62 -146 0
v -60 -146 0
v -58 -146 0
v -56 -146 0
v -54 -146 0
v -52 -146 0
v -50 -146 0
v -48 -146 0
v -46 -146 0
v -44 -146 0
v -42 -146 0
v -40 -146 0
v -38 -146 0
v -36 -146 0
v -34 -146 0
v -32 -146 0
v -30 -146 0
v -28 -146 0
v -26 -146 0
v -24 -146 0
v -22 -146 0
v -20 -146 0
v -18 -146 0
v -16 -146 0
v -14 -146 0
v -12 -146 0
v -10 -146 0
v -8 -146 0
v -6 -146 0
v -4 -146 0
v -2 -146 0
v 0 -146 0
v -238 -148 0
v -240 -148 0
v -236 -148 0
v -234 -148 0
v -232 -148 0
v -230 -148 0
v -228 -148 0
v -226 -148 0
v -224 -148 0
v -222 -148 0
v -220 -148 0
v -218 -148 0
v -216 -148 0
v -214 -148 0
v -212 -148 0
v -210 -148 0
v -208 -148 0
v -206 -148 0
v -204 -148 0
v -202 -148 0
v -200 -148 0
v -198 -148 0
v -196 -148 0
v -194 -148 0
v -192 -148 0
v -190 -148 0
v -188 -148 0
v -186 -148 0
v -184 -148 0
v -182 -148 0
v -180 -148 0
v -178 -148 0
v -176 -148 0
v -174 -148 0
v -172 -148 0
v -170 -148 0
v -168 -148 0
v -166 -148 0
v -164 -148 0
v -162 -148 0
v -160 -148 0
v -158 -148 0
v -156 -148 0
v -154 -148 0
v -152 -148 0
v -150 -148 0
v -148 -148 0
v -146 -148 0
v -144 -148 0
v -142 -148 0
v -140 -148 0
v -136 -148 0
v -138 -148 0
v -132 -148 0
v -134 -148 0
v -130 -148 0
v -128 -148 0
v -126 -148 0
v -124 -148 0
v -122 -148 0
v -120 -148 0
v -118 -148 0
v -116 -148 0
v -114 -148 0
v -112 -148 0
v -110 -148 0
v -108 -148 0
v -106 -148 0
v -104 -148 0
v -102 -148 0
v -100 -148 0
v -98 -148 0
v -96 -148 0
v -94 -148 0
v -92 -148 0
v -90 -148 0
v -88 -148 0
v -86 -148 0
v -84 -148 0
v -82 -148 0
v -80 -148 0
v -78 -148 0
v -76 -148 0
v -74 -148 0
v -72 -148 0
v -70 -148 0
v -68 -148 0
v -66 -148 0
v -64 -148 0
v -62 -148 0
v -60 -148 0
v -58 -148 0
v -56 -148 0
v -54 -148 0
v -52 -148 0
v -50 -148 0
v -48 -148 0
v -46 -148 0
v -44 -148 0
v -42 -148 0
v -40 -148 0
v -38 -148 0
v -36 -148 0
v -34 -148 0
v -32 -148 0
v -30 -148 0
v -28 -148 0
v -26 -148 0
v -24 -148 0
v -22 -148 0
v -20 -148 0
v -18 -148 0
v -16 -148 0
v -14 -148 0
v -12 -148 0
v -10 -148 0
v -8 -148 0
v -6 -148 0
v -4 -148 0
v -2 -148 0
v 0 -148 0
v -238 -150 0
v -240 -150 0
v -236 -150 0
v -234 -150 0
v -232 -150 0
v -230 -150 0
v -228 -150 0
v -226 -150 0
v -224 -150 0
v -222 -150 0
v -220 -150 0
v -218 -150 0
v -216 -150 0
v -214 -150 0
v -212 -150 0
v -210 -150 0
v -208 -150 0
v -206 -150 0
v -204 -150 0
v -202 -150 0
v -200 -150 0
v -198 -150 0
v -196 -150 0
v -194 -150 0
v -192 -150 0
v -190 -150 0
v -188 -150 0
v -186 -150 0
v -184 -150 0
v -182 -150 0
v -180 -150 0
v -178 -150 0
v -176 -150 0
v -174 -150 0
v -172 -150 0
v -170 -150 0
v -168 -150 0
v -166 -150 0
v -164 -150 0
v -162 -150 0
v -160 -150 0
v -158 -150 0
v -156 -150 0
v -154 -150 0
v -152 -150 0
v -150 -150 0
v -148 -150 0
v -146 -150 0
v -144 -150 0
v -142 -150 0
v -140 -150 0
v -136 -150 0
v -138 -150 0
v -132 -150 0
v -134 -150 0
v -130 -150 0
v -128 -150 0
v -126 -150 0
v -124 -150 0
v -122 -150 0
v -120 -150 0
v -118 -150 0
v -116 -150 0
v -114 -150 0
v -112 -150 0
v -110 -150 0
v -108 -150 0
v -106 -150 0
v -104 -150 0
v -102 -150 0
v -100 -150 0
v -98 -150 0
v -96 -150 0
v -94 -150 0
v -92 -150 0
v -90 -150 0
v -88 -150 0
v -86 -150 0
v -84 -150 0
v -82 -150 0
v -80 -150 0
v -78 -150 0
v -76 -150 0
v -74 -150 0
v -72 -150 0
v -70 -150 0
v -68 -150 0
v -66 -150 0
v -64 -150 0
v -62 -150 0
v -60 -150 0
v -58 -150 0
v -56 -150 0
v -54 -150 0
v -52 -150 0
v -50 -150 0
v -48 -150 0
v -46 -150 0
v -44 -150 0
v -42 -150 0
v -40 -150 0
v -38 -150 0
v -36 -150 0
v -34 -150 0
v -32 -150 0
v -30 -150 0
v -28 -150 0
v -26 -150 0
v -24 -150 0
v -22 -150 0
v -20 -150 0
v -18 -150 0
v -16 -150 0
v -14 -150 0
v -12 -150 0
v -10 -150 0
v -8 -150 0
v -6 -150 0
v -4 -150 0
v -2 -150 0
v 0 -150 0
v -238 -152 0
v -240 -152 0
v -236 -152 0
v -234 -152 0
v -232 -152 0
v -230 -152 0
v -228 -152 0
v -226 -152 0
v -224 -152 0
v -222 -152 0
v -220 -152 0
v -218 -152 0
v -216 -152 0
v -214 -152 0
v -212 -152 0
v -210 -152 0
v -208 -152 0
v -206 -152 0
v -204 -152 0
v -202 -152 0
v -200 -152 0
v -198 -152 0
v -196 -152 0
v -194 -152 0
v -192 -152 0
v -190 -152 0
v -188 -152 0
v -186 -152 0
v -184 -152 0
v -182 -152 0
v -180 -152 0
v -178 -152 0
v -176 -152 0
v -174 -152 0
v -172 -152 0
v -170 -152 0
v -168 -152 0
v -166 -152 0
v -164 -152 0
v -162 -152 0
v -160 -152 0
v -158 -152 0
v -156 -152 0
v -154 -152 0
v -152 -152 0
v -150 -152 0
v -148 -152 0
v -146 -152 0
v -144 -152 0
v -142 -152 0
v -140 -152 0
v -136 -152 0
v -138 -152 0
v -132 -152 0
v -134 -152 0
v -130 -152 0
v -128 -152 0
v -126 -152 0
v -124 -152 0
v -122 -152 0
v -120 -152 0
v -118 -152 0
v -116 -152 0
v -114 -152 0
v -112 -152 0
v -110 -152 0
v -108 -152 0
v -106 -152 0
v -104 -152 0
v -102 -152 0
v -100 -152 0
v -98 -152 0
v -96 -152 0
v -94 -152 0
v -92 -152 0
v -90 -152 0
v -88 -152 0
v -86 -152 0
v -84 -152 0
v -82 -152 0
v -80 -152 0
v -78 -152 0
v -76 -152 0
v -74 -152 0
v -72 -152 0
v -70 -152 0
v -68 -152 0
v -66 -152 0
v -64 -152 0
v -62 -152 0
v -60 -152 0
v -58 -152 0
v -56 -152 0
v -54 -152 0
v -52 -152 0
v -50 -152 0
v -48 -152 0
v -46 -152 0
v -44 -152 0
v -42 -152 0
v -40 -152 0
v -38 -152 0
v -36 -152 0
v -34 -152 0
v -32 -152 0
v -30 -152 0
v -28 -152 0
v -26 -152 0
v -24 -152 0
v -22 -152 0
v -20 -152 0
v -18 -152 0
v -16 -152 0
v -14 -152 0
v -12 -152 0
v -10 -152 0
v -8 -152 0
v -6 -152 0
v -4 -152 0
v -2 -152 0
v 0 -152 0
v -238 -154 0
v -240 -154 0
v -236 -154 0
v -234 -154 0
v -232 -154 0
v -230 -154 0
v -228 -154 0
v -226 -154 0
v -224 -154 0
v -222 -154 0
v -220 -154 0
v -218 -154 0
v -216 -154 0
v -214 -154 0
v -212 -154 0
v -210 -154 0
v -208 -154 0
v -206 -154 0
v -204 -154 0
v -202 -154 0
v -200 -154 0
v -198 -154 0
v -196 -154 0
v -194 -154 0
v -192 -154 0
v -190 -154 0
v -188 -154 0
v -186 -154 0
v -184 -154 0
v -182 -154 0
v -180 -154 0
v -178 -154 0
v -176 -154 0
v -174 -154 0
v -172 -154 0
v -170 -154 0
v -168 -154 0
v -166 -154 0
v -164 -154 0
v -162 -154 0
v -160 -154 0
v -158 -154 0
v -156 -154 0
v -154 -154 0
v -152 -154 0
v -150 -154 0
v -148 -154 0
v -146 -154 0
v -144 -154 0
v -142 -154 0
v -140 -154 0
v -136 -154 0
v -138 -154 0
v -132 -154 0
v -134 -154 0
v -130 -154 0
v -128 -154 0
v -126 -154 0
v -124 -154 0
v -122 -154 0
v -120 -154 0
v -118 -154 0
v -116 -154 0
v -114 -154 0
v -112 -154 0
v -110 -154 0
v -108 -154 0
v -106 -154 0
v -104 -154 0
v -102 -154 0
v -100 -154 0
v -98 -154 0
v -96 -154 0
v -94 -154 0
v -92 -154 0
v -90 -154 0
v -88 -154 0
v -86 -154 0
v -84 -154 0
v -82 -154 0
v -80 -154 0
v -78 -154 0
v -76 -154 0
v -74 -154 0
v -72 -154 0
v -70 -154 0
v -68 -154 0
v -66 -154 0
v -64 -154 0
v -62 -154 0
v -60 -154 0
v -58 -154 0
v -56 -154 0
v -54 -154 0
v -52 -154 0
v -50 -154 0
v -48 -154 0
v -46 -154 0
v -44 -154 0
v -42 -154 0
v -40 -154 0
v -38 -154 0
v -36 -154 0
v -34 -154 0
v -32 -154 0
v -30 -154 0
v -28 -154 0
v -26 -154 0
v -24 -154 0
v -22 -154 0
v -20 -154 0
v -18 -154 0
v -16 -154 0
v -14 -154 0
v -12 -154 0
v -10 -154 0
v -8 -154 0
v -6 -154 0
v -4 -154 0
v -2 -154 0
v 0 -154 0
v -238 -156 0
v -240 -156 0
v -236 -156 0
v -234 -156 0
v -232 -156 0
v -230 -156 0
v -228 -156 0
v -226 -156 0
v -224 -156 0
v -222 -156 0
v -220 -156 0
v -218 -156 0
v -216 -156 0
v -214 -156 0
v -212 -156 0
v -210 -156 0
v -208 -156 0
v -206 -156 0
v -204 -156 0
v -202 -156 0
v -200 -156 0
v -198 -156 0
v -196 -156 0
v -194 -156 0
v -192 -156 0
v -190 -156 0
v -188 -156 0
v -186 -156 0
v -184 -156 0
v -182 -156 0
v -180 -156 0
v -178 -156 0
v -176 -156 0
v -174 -156 0
v -172 -156 0
v -170 -156 0
v -168 -156 0
v -166 -156 0
v -164 -156 0
v -162 -156 0
v -160 -156 0
v -158 -156 0
v -156 -156 0
v -154 -156 0
v -152 -156 0
v -150 -156 0
v -148 -156 0
v -146 -156 0
v -144 -156 0
v -142 -156 0
v -140 -156 0
v -136 -156 0
v -138 -156 0
v -132 -156 0
v -134 -156 0
v -130 -156 0
v -128 -156 0
v -126 -156 0
v -124 -156 0
v -122 -156 0
v -120 -156 0
v -118 -156 0
v -116 -156 0
v -114 -156 0
v -112 -156 0
v -110 -156 0
v -108 -156 0
v -106 -156 0
v -104 -156 0
v -102 -156 0
v -100 -156 0
v -98 -156 0
v -96 -156 0
v -94 -156 0
v -92 -156 0
v -90 -156 0
v -88 -156 0
v -86 -156 0
v -84 -156 0
v -82 -156 0
v -80 -156 0
v -78 -156 0
v -76 -156 0
v -74 -156 0
v -72 -156 0
v -70 -156 0
v -68 -156 0
v -66 -156 0
v -64 -156 0
v -62 -156 0
v -60 -156 0
v -58 -156 0
v -56 -156 0
v -54 -156 0
v -52 -156 0
v -50 -156 0
v -48 -156 0
v -46 -156 0
v -44 -156 0
v -42 -156 0
v -40 -156 0
v -38 -156 0
v -36 -156 0
v -34 -156 0
v -32 -156 0
v -30 -156 0
v -28 -156 0
v -26 -156 0
v -24 -156 0
v -22 -156 0
v -20 -156 0
v -18 -156 0
v -16 -156 0
v -14 -156 0
v -12 -156 0
v -10 -156 0
v -8 -156 0
v -6 -156 0
v -4 -156 0
v -2 -156 0
v 0 -156 0
v -238 -158 0
v -240 -158 0
v -236 -158 0
v -234 -158 0
v -232 -158 0
v -230 -158 0
v -228 -158 0
v -226 -158 0
v -224 -158 0
v -222 -158 0
v -220 -158 0
v -218 -158 0
v -216 -158 0
v -214 -158 0
v -212 -158 0
v -210 -158 0
v -208 -158 0
v -206 -158 0
v -204 -158 0
v -202 -158 0
v -200 -158 0
v -198 -158 0
v -196 -158 0
v -194 -158 0
v -192 -158 0
v -190 -158 0
v -188 -158 0
v -186 -158 0
v -184 -158 0
v -182 -158 0
v -180 -158 0
v -178 -158 0
v -176 -158 0
v -174 -158 0
v -172 -158 0
v -170 -158 0
v -168 -158 0
v -166 -158 0
v -164 -158 0
v -162 -158 0
v -160 -158 0
v -158 -158 0
v -156 -158 0
v -154 -158 0
v -152 -158 0
v -150 -158 0
v -148 -158 0
v -146 -158 0
v -144 -158 0
v -142 -158 0
v -140 -158 0
v -136 -158 0
v -138 -158 0
v -132 -158 0
v -134 -158 0
v -130 -158 0
v -128 -158 0
v -126 -158 0
v -124 -158 0
v -122 -158 0
v -120 -158 0
v -118 -158 0
v -116 -158 0
v -114 -158 0
v -112 -158 0
v -110 -158 0
v -108 -158 0
v -106 -158 0
v -104 -158 0
v -102 -158 0
v -100 -158 0
v -98 -158 0
v -96 -158 0
v -94 -158 0
v -92 -158 0
v -90 -158 0
v -88 -158 0
v -86 -158 0
v -84 -158 0
v -82 -158 0
v -80 -158 0
v -78 -158 0
v -76 -158 0
v -74 -158 0
v -72 -158 0
v -70 -158 0
v -68 -158 0
v -66 -158 0
v -64 -158 0
v -62 -158 0
v -60 -158 0
v -58 -158 0
v -56 -158 0
v -54 -158 0
v -52 -158 0
v -50 -158 0
v -48 -158 0
v -46 -158 0
v -44 -158 0
v -42 -158 0
v -40 -158 0
v -38 -158 0
v -36 -158 0
v -34 -158 0
v -32 -158 0
v -30 -158 0
v -28 -158 0
v -26 -158 0
v -24 -158 0
v -22 -158 0
v -20 -158 0
v -18 -158 0
v -16 -158 0
v -14 -158 0
v -12 -158 0
v -10 -158 0
v -8 -158 0
v -6 -158 0
v -4 -158 0
v -2 -158 0
v 0 -158 0
v -238 -160 0
v -240 -160 0
v -236 -160 0
v -234 -160 0
v -232 -160 0
v -230 -160 0
v -228 -160 0
v -226 -160 0
v -224 -160 0
v -222 -160 0
v -220 -160 0
v -218 -160 0
v -216 -160 0
v -214 -160 0
v -212 -160 0
v -210 -160 0
v -208 -160 0
v -206 -160 0
v -204 -160 0
v -202 -160 0
v -200 -160 0
v -198 -160 0
v -196 -160 0
v -194 -160 0
v -192 -160 0
v -190 -160 0
v -188 -160 0
v -186 -160 0
v -184 -160 0
v -182 -160 0
v -180 -160 0
v -178 -160 0
v -176 -160 0
v -174 -160 0
v -172 -160 0
v -170 -160 0
v -168 -160 0
v -166 -160 0
v -164 -160 0
v -162 -160 0
v -160 -160 0
v -158 -160 0
v -156 -160 0
v -154 -160 0
v -152 -160 0
v -150 -160 0
v -148 -160 0
v -146 -160 0
v -144 -160 0
v -142 -160 0
v -140 -160 0
v -136 -160 0
v -138 -160 0
v -132 -160 0
v -134 -160 0
v -130 -160 0
v -128 -160 0
v -126 -160 0
v -124 -160 0
v -122 -160 0
v -120 -160 0
v -118 -160 0
v -116 -160 0
v -114 -160 0
v -112 -160 0
v -110 -160 0
v -108 -160 0
v -106 -160 0
v -104 -160 0
v -102 -160 0
v -100 -160 0
v -98 -160 0
v -96 -160 0
v -94 -160 0
v -92 -160 0
v -90 -160 0
v -88 -160 0
v -86 -160 0
v -84 -160 0
v -82 -160 0
v -80 -160 0
v -78 -160 0
v -76 -160 0
v -74 -160 0
v -72 -160 0
v -70 -160 0
v -68 -160 0
v -66 -160 0
v -64 -160 0
v -62 -160 0
v -60 -160 0
v -58 -160 0
v -56 -160 0
v -54 -160 0
v -52 -160 0
v -50 -160 0
v -48 -160 0
v -46 -160 0
v -44 -160 0
v -42 -160 0
v -40 -160 0
v -38 -160 0
v -36 -160 0
v -34 -160 0
v -32 -160 0
v -30 -160 0
v -28 -160 0
v -26 -160 0
v -24 -160 0
v -22 -160 0
v -20 -160 0
v -18 -160 0
v -16 -160 0
v -14 -160 0
v -12 -160 0
v -10 -160 0
v -8 -160 0
v -6 -160 0
v -4 -160 0
v -2 -160 0
v 0 -160 0
v -238 -162 0
v -240 -162 0
v -236 -162 0
v -234 -162 0
v -232 -162 0
v -230 -162 0
v -228 -162 0
v -226 -162 0
v -224 -162 0
v -222 -162 0
v -220 -162 0
v -218 -162 0
v -216 -162 0
v -214 -162 0
v -212 -162 0
v -210 -162 0
v -208 -162 0
v -206 -162 0
v -204 -162 0
v -202 -162 0
v -200 -162 0
v -198 -162 0
v -196 -162 0
v -194 -162 0
v -192 -162 0
v -190 -162 0
v -188 -162 0
v -186 -162 0
v -184 -162 0
v -182 -162 0
v -180 -162 0
v -178 -162 0
v -176 -162 0
v -174 -162 0
v -172 -162 0
v -170 -162 0
v -168 -162 0
v -166 -162 0
v -164 -162 0
v -162 -162 0
v -160 -162 0
v -158 -162 0
v -156 -162 0
v -154 -162 0
v -152 -162 0
v -150 -162 0
v -148 -162 0
v -146 -162 0
v -144 -162 0
v -142 -162 0
v -140 -162 0
v -136 -162 0
v -138 -162 0
v -132 -162 0
v -134 -162 0
v -130 -162 0
v -128 -162 0
v -126 -162 0
v -124 -162 0
v -122 -162 0
v -120 -162 0
v -118 -162 0
v -116 -162 0
v -114 -162 0
v -112 -162 0
v -110 -162 0
v -108 -162 0
v -106 -162 0
v -104 -162 0
v -102 -162 0
v -100 -162 0
v -98 -162 0
v -96 -162 0
v -94 -162 0
v -92 -162 0
v -90 -162 0
v -88 -162 0
v -86 -162 0
v -84 -162 0
v -82 -162 0
v -80 -162 0
v -78 -162 0
v -76 -162 0
v -74 -162 0
v -72 -162 0
v -70 -162 0
v -68 -162 0
v -66 -162 0
v -64 -162 0
v -62 -162 0
v -60 -162 0
v -58 -162 0
v -56 -162 0
v -54 -162 0
v -52 -162 0
v -50 -162 0
v -48 -162 0
v -46 -162 0
v -44 -162 0
v -42 -162 0
v -40 -162 0
v -38 -162 0
v -36 -162 0
v -34 -162 0
v -32 -162 0
v -30 -162 0
v -28 -162 0
v -26 -162 0
v -24 -162 0
v -22 -162 0
v -20 -162 0
v -18 -162 0
v -16 -162 0
v -14 -162 0
v -12 -162 0
v -10 -162 0
v -8 -162 0
v -6 -162 0
v -4 -162 0
v -2 -162 0
v 0 -162 0

# Texture cooridinates (Count = 32)
vt 7.629395E-06 0.9375076
vt 0.06249237 0.9375076
vt 0.06249237 0.9999924
vt 7.629395E-06 0.9999924
vt 0.3750076 0.9375076
vt 0.4374924 0.9375076
vt 0.4374924 0.9999924
vt 0.3750076 0.9999924
vt 0.1250076 0.9375076
vt 0.1874924 0.9375076
vt 0.1874924 0.9999924
vt 0.1250076 0.9999924
vt 0.1875076 0.9375076
vt 0.2499924 0.9375076
vt 0.2499924 0.9999924
vt 0.1875076 0.9999924
vt 0.3125076 0.9375076
vt 0.3749924 0.9375076
vt 0.3749924 0.9999924
vt 0.3125076 0.9999924
vt 0.06250763 0.9375076
vt 0.1249924 0.9375076
vt 0.1249924 0.9999924
vt 0.06250763 0.9999924
vt 0.2500076 0.9375076
vt 0.3124924 0.9375076
vt 0.3124924 0.9999924
vt 0.2500076 0.9999924
vt 0.4375076 0.9375076
vt 0.4999924 0.9375076
vt 0.4999924 0.9999924
vt 0.4375076 0.9999924

# Normal
vn 0 0 -1

# Groups (Count = 1)

g mesh_0001
f 1/1/1 2/2/1 3/3/1 4/4/1
f 5/1/1 6/2/1 2/3/1 1/4/1
f 7/1/1 8/2/1 6/3/1 5/4/1
f 9/1/1 10/2/1 8/3/1 7/4/1
f 11/1/1 12/2/1 13/3/1 14/4/1
f 15/5/1 16/6/1 10/7/1 9/8/1
f 17/9/1 18/10/1 12/11/1 11/12/1
f 19/1/1 20/2/1 16/3/1 15/4/1
f 21/1/1 22/2/1 18/3/1 17/4/1
f 23/1/1 24/2/1 20/3/1 19/4/1
f 25/13/1 26/14/1 22/15/1 21/16/1
f 27/1/1 28/2/1 24/3/1 23/4/1
f 29/13/1 30/14/1 26/15/1 25/16/1
f 31/1/1 32/2/1 28/3/1 27/4/1
f 33/13/1 34/14/1 30/15/1 29/16/1
f 35/5/1 36/6/1 32/7/1 31/8/1
f 37/13/1 38/14/1 34/15/1 33/16/1
f 39/1/1 40/2/1 36/3/1 35/4/1
f 41/9/1 42/10/1 38/11/1 37/12/1
f 43/9/1 44/10/1 40/11/1 39/12/1
f 45/17/1 46/18/1 42/19/1 41/20/1
f 47/1/1 48/2/1 44/3/1 43/4/1
f 49/9/1 50/10/1 46/11/1 45/12/1
f 51/9/1 52/10/1 48/11/1 47/12/1
f 53/21/1 54/22/1 50/23/1 49/24/1
f 55/1/1 56/2/1 52/3/1 51/4/1
f 57/9/1 58/10/1 54/11/1 53/12/1
f 59/9/1 60/10/1 56/11/1 55/12/1
f 61/21/1 62/22/1 58/23/1 57/24/1
f 63/1/1 64/2/1 60/3/1 59/4/1
f 65/25/1 66/26/1 62/27/1 61/28/1
f 67/5/1 68/6/1 64/7/1 63/8/1
f 69/21/1 67/22/1 63/23/1 70/24/1
f 71/9/1 69/10/1 70/11/1 72/12/1
f 73/21/1 71/22/1 72/23/1 74/24/1
f 75/9/1 73/10/1 74/11/1 76/12/1
f 77/1/1 75/2/1 76/3/1 78/4/1
f 79/5/1 77/6/1 78/7/1 80/8/1
f 81/29/1 82/30/1 83/31/1 84/32/1
f 85/9/1 86/10/1 87/11/1 88/12/1
f 89/29/1 85/30/1 88/31/1 90/32/1
f 91/1/1 92/2/1 93/3/1 94/4/1
f 95/9/1 96/10/1 66/11/1 65/12/1
f 97/29/1 98/30/1 68/31/1 67/32/1
f 99/29/1 97/30/1 67/31/1 69/32/1
f 100/29/1 99/30/1 69/31/1 71/32/1
f 101/29/1 100/30/1 71/31/1 73/32/1
f 102/29/1 101/30/1 73/31/1 75/32/1
f 103/29/1 102/30/1 75/31/1 77/32/1
f 104/5/1 103/6/1 77/7/1 79/8/1
f 105/9/1 104/10/1 79/11/1 106/12/1
f 107/5/1 108/6/1 82/7/1 81/8/1
f 109/1/1 107/2/1 81/3/1 110/4/1
f 111/29/1 112/30/1 113/31/1 114/32/1
f 115/5/1 111/6/1 114/7/1 116/8/1
f 117/1/1 115/2/1 116/3/1 118/4/1
f 119/29/1 117/30/1 118/31/1 120/32/1
f 121/9/1 122/10/1 123/11/1 124/12/1
f 125/29/1 121/30/1 124/31/1 126/32/1
f 127/1/1 128/2/1 129/3/1 130/4/1
f 131/1/1 132/2/1 133/3/1 134/4/1
f 135/5/1 131/6/1 134/7/1 136/8/1
f 137/1/1 135/2/1 136/3/1 138/4/1
f 139/9/1 137/10/1 138/11/1 140/12/1
f 141/29/1 142/30/1 86/31/1 85/32/1
f 143/1/1 141/2/1 85/3/1 89/4/1
f 144/1/1 145/2/1 146/3/1 147/4/1
f 148/29/1 144/30/1 147/31/1 149/32/1
f 150/9/1 148/10/1 149/11/1 151/12/1
f 152/5/1 150/6/1 151/7/1 153/8/1
f 154/29/1 152/30/1 153/31/1 155/32/1
f 156/1/1 154/2/1 155/3/1 92/4/1
f 157/29/1 156/30/1 92/31/1 91/32/1
f 158/9/1 157/10/1 91/11/1 159/12/1
f 160/1/1 161/2/1 96/3/1 95/4/1
f 162/29/1 163/30/1 98/31/1 97/32/1
f 164/29/1 162/30/1 97/31/1 99/32/1
f 165/5/1 164/6/1 99/7/1 100/8/1
f 166/21/1 165/22/1 100/23/1 101/24/1
f 167/9/1 166/10/1 101/11/1 102/12/1
f 168/5/1 167/6/1 102/7/1 103/8/1
f 169/1/1 168/2/1 103/3/1 104/4/1
f 170/9/1 169/10/1 104/11/1 105/12/1
f 171/1/1 170/2/1 105/3/1 172/4/1
f 173/5/1 174/6/1 175/7/1 176/8/1
f 177/21/1 173/22/1 176/23/1 178/24/1
f 179/9/1 177/10/1 178/11/1 180/12/1
f 181/1/1 182/2/1 183/3/1 184/4/1
f 185/5/1 181/6/1 184/7/1 186/8/1
f 187/29/1 185/30/1 186/31/1 188/32/1
f 189/5/1 190/6/1 191/7/1 192/8/1
f 193/1/1 189/2/1 192/3/1 194/4/1
f 195/21/1 193/22/1 194/23/1 196/24/1
f 197/1/1 198/2/1 199/3/1 200/4/1
f 201/5/1 197/6/1 200/7/1 202/8/1
f 203/5/1 201/6/1 202/7/1 204/8/1
f 205/5/1 203/6/1 204/7/1 206/8/1
f 207/1/1 205/2/1 206/3/1 208/4/1
f 209/1/1 207/2/1 208/3/1 210/4/1
f 211/5/1 209/6/1 210/7/1 212/8/1
f 213/29/1 211/30/1 212/31/1 214/32/1
f 215/1/1 213/2/1 214/3/1 216/4/1
f 217/5/1 215/6/1 216/7/1 218/8/1
f 219/29/1 217/30/1 218/31/1 220/32/1
f 221/9/1 219/10/1 220/11/1 222/12/1
f 223/5/1 221/6/1 222/7/1 224/8/1
f 225/21/1 223/22/1 224/23/1 226/24/1
f 227/5/1 225/6/1 226/7/1 228/8/1
f 229/1/1 227/2/1 228/3/1 230/4/1
f 231/29/1 229/30/1 230/31/1 232/32/1
f 233/5/1 231/6/1 232/7/1 234/8/1
f 235/5/1 233/6/1 234/7/1 236/8/1
f 237/21/1 235/22/1 236/23/1 238/24/1
f 239/1/1 237/2/1 238/3/1 240/4/1
f 241/29/1 242/30/1 243/31/1 244/32/1
f 245/9/1 241/10/1 244/11/1 246/12/1
f 247/29/1 245/30/1 246/31/1 248/32/1
f 249/9/1 247/10/1 248/11/1 250/12/1
f 251/1/1 249/2/1 250/3/1 252/4/1
f 253/9/1 251/10/1 252/11/1 254/12/1
f 255/21/1 256/22/1 257/23/1 258/24/1
f 259/1/1 260/2/1 261/3/1 262/4/1
f 263/29/1 259/30/1 262/31/1 264/32/1
f 265/5/1 263/6/1 264/7/1 266/8/1
f 267/1/1 265/2/1 266/3/1 108/4/1
f 268/9/1 267/10/1 108/11/1 107/12/1
f 269/9/1 268/10/1 107/11/1 109/12/1
f 270/5/1 269/6/1 109/7/1 271/8/1
f 272/1/1 270/2/1 271/3/1 273/4/1
f 274/5/1 272/6/1 273/7/1 275/8/1
f 276/5/1 274/6/1 275/7/1 277/8/1
f 278/1/1 276/2/1 277/3/1 279/4/1
f 280/29/1 278/30/1 279/31/1 281/32/1
f 282/5/1 280/6/1 281/7/1 112/8/1
f 283/29/1 282/30/1 112/31/1 111/32/1
f 284/1/1 283/2/1 111/3/1 115/4/1
f 285/5/1 284/6/1 115/7/1 117/8/1
f 286/5/1 285/6/1 117/7/1 119/8/1
f 287/1/1 286/2/1 119/3/1 122/4/1
f 288/5/1 287/6/1 122/7/1 121/8/1
f 289/1/1 288/2/1 121/3/1 125/4/1
f 290/9/1 289/10/1 125/11/1 291/12/1
f 292/5/1 290/6/1 291/7/1 128/8/1
f 293/21/1 292/22/1 128/23/1 127/24/1
f 294/1/1 293/2/1 127/3/1 132/4/1
f 295/21/1 294/22/1 132/23/1 131/24/1
f 296/29/1 295/30/1 131/31/1 135/32/1
f 297/5/1 296/6/1 135/7/1 137/8/1
f 298/29/1 297/30/1 137/31/1 139/32/1
f 299/5/1 298/6/1 139/7/1 300/8/1
f 301/29/1 299/30/1 300/31/1 142/32/1
f 302/5/1 301/6/1 142/7/1 141/8/1
f 303/29/1 302/30/1 141/31/1 143/32/1
f 304/1/1 303/2/1 143/3/1 145/4/1
f 305/29/1 304/30/1 145/31/1 144/32/1
f 306/5/1 305/6/1 144/7/1 148/8/1
f 307/9/1 306/10/1 148/11/1 150/12/1
f 308/1/1 307/2/1 150/3/1 152/4/1
f 309/5/1 308/6/1 152/7/1 154/8/1
f 310/9/1 309/10/1 154/11/1 156/12/1
f 311/21/1 310/22/1 156/23/1 157/24/1
f 312/29/1 311/30/1 157/31/1 158/32/1
f 313/29/1 312/30/1 158/31/1 314/32/1
f 315/5/1 313/6/1 314/7/1 316/8/1
f 317/1/1 315/2/1 316/3/1 318/4/1
f 319/29/1 317/30/1 318/31/1 320/32/1
f 321/9/1 319/10/1 320/11/1 322/12/1
f 323/1/1 321/2/1 322/3/1 324/4/1
f 325/29/1 323/30/1 324/31/1 326/32/1
f 327/1/1 325/2/1 326/3/1 328/4/1
f 329/1/1 327/2/1 328/3/1 330/4/1
f 331/1/1 329/2/1 330/3/1 332/4/1
f 333/1/1 331/2/1 332/3/1 334/4/1
f 335/29/1 333/30/1 334/31/1 336/32/1
f 337/1/1 335/2/1 336/3/1 338/4/1
f 339/9/1 337/10/1 338/11/1 340/12/1
f 341/5/1 339/6/1 340/7/1 342/8/1
f 343/29/1 341/30/1 342/31/1 344/32/1
f 345/1/1 343/2/1 344/3/1 346/4/1
f 347/9/1 345/10/1 346/11/1 348/12/1
f 349/29/1 347/30/1 348/31/1 350/32/1
f 351/1/1 349/2/1 350/3/1 352/4/1
f 353/29/1 351/30/1 352/31/1 354/32/1
f 355/21/1 353/22/1 354/23/1 356/24/1
f 357/29/1 355/30/1 356/31/1 358/32/1
f 359/29/1 357/30/1 358/31/1 360/32/1
f 361/9/1 359/10/1 360/11/1 161/12/1
f 362/29/1 361/30/1 161/31/1 160/32/1
f 363/29/1 364/30/1 163/31/1 162/32/1
f 365/5/1 363/6/1 162/7/1 164/8/1
f 366/17/1 365/18/1 164/19/1 165/20/1
f 367/21/1 366/22/1 165/23/1 166/24/1
f 368/9/1 367/10/1 166/11/1 167/12/1
f 369/9/1 368/10/1 167/11/1 168/12/1
f 370/21/1 369/22/1 168/23/1 169/24/1
f 371/1/1 370/2/1 169/3/1 170/4/1
f 372/1/1 371/2/1 170/3/1 171/4/1
f 373/1/1 372/2/1 171/3/1 174/4/1
f 374/1/1 373/2/1 174/3/1 173/4/1
f 375/5/1 374/6/1 173/7/1 177/8/1
f 376/9/1 375/10/1 177/11/1 179/12/1
f 377/5/1 376/6/1 179/7/1 182/8/1
f 378/1/1 377/2/1 182/3/1 181/4/1
f 379/29/1 378/30/1 181/31/1 185/32/1
f 380/5/1 379/6/1 185/7/1 187/8/1
f 381/1/1 380/2/1 187/3/1 190/4/1
f 382/21/1 381/22/1 190/23/1 189/24/1
f 383/5/1 382/6/1 189/7/1 193/8/1
f 384/9/1 383/10/1 193/11/1 195/12/1
f 385/5/1 384/6/1 195/7/1 198/8/1
f 386/5/1 385/6/1 198/7/1 197/8/1
f 387/29/1 386/30/1 197/31/1 201/32/1
f 388/29/1 387/30/1 201/31/1 203/32/1
f 389/29/1 388/30/1 203/31/1 205/32/1
f 390/29/1 389/30/1 205/31/1 207/32/1
f 391/29/1 390/30/1 207/31/1 209/32/1
f 392/29/1 391/30/1 209/31/1 211/32/1
f 393/29/1 392/30/1 211/31/1 213/32/1
f 394/29/1 393/30/1 213/31/1 215/32/1
f 395/9/1 394/10/1 215/11/1 217/12/1
f 396/17/1 395/18/1 217/19/1 219/20/1
f 397/21/1 396/22/1 219/23/1 221/24/1
f 398/1/1 397/2/1 221/3/1 223/4/1
f 399/29/1 398/30/1 223/31/1 225/32/1
f 400/29/1 399/30/1 225/31/1 227/32/1
f 401/29/1 400/30/1 227/31/1 229/32/1
f 402/29/1 401/30/1 229/31/1 231/32/1
f 403/29/1 402/30/1 231/31/1 233/32/1
f 404/29/1 403/30/1 233/31/1 235/32/1
f 405/29/1 404/30/1 235/31/1 237/32/1
f 406/29/1 405/30/1 237/31/1 239/32/1
f 407/5/1 406/6/1 239/7/1 242/8/1
f 408/17/1 407/18/1 242/19/1 241/20/1
f 409/25/1 408/26/1 241/27/1 245/28/1
f 410/13/1 409/14/1 245/15/1 247/16/1
f 411/9/1 410/10/1 247/11/1 249/12/1
f 412/21/1 411/22/1 249/23/1 251/24/1
f 413/1/1 412/2/1 251/3/1 253/4/1
f 414/1/1 415/2/1 256/3/1 255/4/1
f 416/29/1 417/30/1 260/31/1 259/32/1
f 418/29/1 416/30/1 259/31/1 263/32/1
f 419/29/1 418/30/1 263/31/1 265/32/1
f 420/29/1 419/30/1 265/31/1 267/32/1
f 421/29/1 420/30/1 267/31/1 268/32/1
f 422/29/1 421/30/1 268/31/1 269/32/1
f 423/29/1 422/30/1 269/31/1 270/32/1
f 424/29/1 423/30/1 270/31/1 272/32/1
f 425/29/1 424/30/1 272/31/1 274/32/1
f 426/29/1 425/30/1 274/31/1 276/32/1
f 427/29/1 426/30/1 276/31/1 278/32/1
f 428/29/1 427/30/1 278/31/1 280/32/1
f 429/5/1 428/6/1 280/7/1 282/8/1
f 430/5/1 429/6/1 282/7/1 283/8/1
f 431/29/1 430/30/1 283/31/1 284/32/1
f 432/5/1 431/6/1 284/7/1 285/8/1
f 433/29/1 432/30/1 285/31/1 286/32/1
f 434/29/1 433/30/1 286/31/1 287/32/1
f 435/29/1 434/30/1 287/31/1 288/32/1
f 436/29/1 435/30/1 288/31/1 289/32/1
f 437/29/1 436/30/1 289/31/1 290/32/1
f 438/29/1 437/30/1 290/31/1 292/32/1
f 439/29/1 438/30/1 292/31/1 293/32/1
f 440/29/1 439/30/1 293/31/1 294/32/1
f 441/29/1 440/30/1 294/31/1 295/32/1
f 442/29/1 441/30/1 295/31/1 296/32/1
f 443/29/1 442/30/1 296/31/1 297/32/1
f 444/29/1 443/30/1 297/31/1 298/32/1
f 445/5/1 444/6/1 298/7/1 299/8/1
f 446/5/1 445/6/1 299/7/1 301/8/1
f 447/29/1 446/30/1 301/31/1 302/32/1
f 448/29/1 447/30/1 302/31/1 303/32/1
f 449/29/1 448/30/1 303/31/1 304/32/1
f 450/29/1 449/30/1 304/31/1 305/32/1
f 451/5/1 450/6/1 305/7/1 306/8/1
f 452/29/1 451/30/1 306/31/1 307/32/1
f 453/5/1 452/6/1 307/7/1 308/8/1
f 454/5/1 453/6/1 308/7/1 309/8/1
f 455/5/1 454/6/1 309/7/1 310/8/1
f 456/5/1 455/6/1 310/7/1 311/8/1
f 457/5/1 456/6/1 311/7/1 312/8/1
f 458/5/1 457/6/1 312/7/1 313/8/1
f 459/29/1 458/30/1 313/31/1 315/32/1
f 460/29/1 459/30/1 315/31/1 317/32/1
f 461/5/1 460/6/1 317/7/1 319/8/1
f 462/29/1 461/30/1 319/31/1 321/32/1
f 463/5/1 462/6/1 321/7/1 323/8/1
f 464/5/1 463/6/1 323/7/1 325/8/1
f 465/29/1 464/30/1 325/31/1 327/32/1
f 466/5/1 465/6/1 327/7/1 329/8/1
f 467/5/1 466/6/1 329/7/1 331/8/1
f 468/5/1 467/6/1 331/7/1 333/8/1
f 469/5/1 468/6/1 333/7/1 335/8/1
f 470/29/1 469/30/1 335/31/1 337/32/1
f 471/5/1 470/6/1 337/7/1 339/8/1
f 472/5/1 471/6/1 339/7/1 341/8/1
f 473/5/1 472/6/1 341/7/1 343/8/1
f 474/5/1 473/6/1 343/7/1 345/8/1
f 475/5/1 474/6/1 345/7/1 347/8/1
f 476/29/1 475/30/1 347/31/1 349/32/1
f 477/5/1 476/6/1 349/7/1 351/8/1
f 478/5/1 477/6/1 351/7/1 353/8/1
f 479/5/1 478/6/1 353/7/1 355/8/1
f 480/29/1 479/30/1 355/31/1 357/32/1
f 481/5/1 480/6/1 357/7/1 359/8/1
f 482/5/1 481/6/1 359/7/1 361/8/1
f 483/21/1 482/22/1 361/23/1 362/24/1
f 484/29/1 485/30/1 364/31/1 363/32/1
f 486/5/1 484/6/1 363/7/1 365/8/1
f 487/9/1 486/10/1 365/11/1 366/12/1
f 488/21/1 487/22/1 366/23/1 367/24/1
f 489/13/1 488/14/1 367/15/1 368/16/1
f 490/9/1 489/10/1 368/11/1 369/12/1
f 491/9/1 490/10/1 369/11/1 370/12/1
f 492/1/1 491/2/1 370/3/1 371/4/1
f 493/29/1 492/30/1 371/31/1 372/32/1
f 494/29/1 493/30/1 372/31/1 373/32/1
f 495/29/1 494/30/1 373/31/1 374/32/1
f 496/29/1 495/30/1 374/31/1 375/32/1
f 497/29/1 496/30/1 375/31/1 376/32/1
f 498/29/1 497/30/1 376/31/1 377/32/1
f 499/5/1 498/6/1 377/7/1 378/8/1
f 500/17/1 499/18/1 378/19/1 379/20/1
f 501/25/1 500/26/1 379/27/1 380/28/1
f 502/13/1 501/14/1 380/15/1 381/16/1
f 503/9/1 502/10/1 381/11/1 382/12/1
f 504/21/1 503/22/1 382/23/1 383/24/1
f 505/1/1 504/2/1 383/3/1 384/4/1
f 506/29/1 505/30/1 384/31/1 385/32/1
f 507/29/1 506/30/1 385/31/1 386/32/1
f 508/29/1 507/30/1 386/31/1 387/32/1
f 509/29/1 508/30/1 387/31/1 388/32/1
f 510/5/1 509/6/1 388/7/1 389/8/1
f 511/17/1 510/18/1 389/19/1 390/20/1
f 512/25/1 511/26/1 390/27/1 391/28/1
f 513/13/1 512/14/1 391/15/1 392/16/1
f 514/9/1 513/10/1 392/11/1 393/12/1
f 515/21/1 514/22/1 393/23/1 394/24/1
f 516/1/1 515/2/1 394/3/1 395/4/1
f 517/1/1 516/2/1 395/3/1 396/4/1
f 518/17/1 517/18/1 396/19/1 397/20/1
f 519/29/1 518/30/1 397/31/1 398/32/1
f 520/5/1 519/6/1 398/7/1 399/8/1
f 521/17/1 520/18/1 399/19/1 400/20/1
f 522/25/1 521/26/1 400/27/1 401/28/1
f 523/13/1 522/14/1 401/15/1 402/16/1
f 524/9/1 523/10/1 402/11/1 403/12/1
f 525/21/1 524/22/1 403/23/1 404/24/1
f 526/1/1 525/2/1 404/3/1 405/4/1
f 527/21/1 526/22/1 405/23/1 406/24/1
f 528/1/1 527/2/1 406/3/1 407/4/1
f 529/17/1 528/18/1 407/19/1 408/20/1
f 530/25/1 529/26/1 408/27/1 409/28/1
f 531/13/1 530/14/1 409/15/1 410/16/1
f 532/9/1 531/10/1 410/11/1 411/12/1
f 533/21/1 532/22/1 411/23/1 412/24/1
f 534/1/1 533/2/1 412/3/1 413/4/1
f 535/13/1 536/14/1 415/15/1 414/16/1
f 537/29/1 538/30/1 417/31/1 416/32/1
f 539/5/1 537/6/1 416/7/1 418/8/1
f 540/5/1 539/6/1 418/7/1 419/8/1
f 541/29/1 540/30/1 419/31/1 420/32/1
f 542/29/1 541/30/1 420/31/1 421/32/1
f 543/5/1 542/6/1 421/7/1 422/8/1
f 544/5/1 543/6/1 422/7/1 423/8/1
f 545/29/1 544/30/1 423/31/1 424/32/1
f 546/29/1 545/30/1 424/31/1 425/32/1
f 547/5/1 546/6/1 425/7/1 426/8/1
f 548/5/1 547/6/1 426/7/1 427/8/1
f 549/5/1 548/6/1 427/7/1 428/8/1
f 550/5/1 549/6/1 428/7/1 429/8/1
f 551/5/1 550/6/1 429/7/1 430/8/1
f 552/29/1 551/30/1 430/31/1 431/32/1
f 553/29/1 552/30/1 431/31/1 432/32/1
f 554/29/1 553/30/1 432/31/1 433/32/1
f 555/5/1 554/6/1 433/7/1 434/8/1
f 556/5/1 555/6/1 434/7/1 435/8/1
f 557/29/1 556/30/1 435/31/1 436/32/1
f 558/5/1 557/6/1 436/7/1 437/8/1
f 559/5/1 558/6/1 437/7/1 438/8/1
f 560/5/1 559/6/1 438/7/1 439/8/1
f 561/29/1 560/30/1 439/31/1 440/32/1
f 562/29/1 561/30/1 440/31/1 441/32/1
f 563/29/1 562/30/1 441/31/1 442/32/1
f 564/17/1 563/18/1 442/19/1 443/20/1
f 565/29/1 564/30/1 443/31/1 444/32/1
f 566/17/1 565/18/1 444/19/1 445/20/1
f 567/17/1 566/18/1 445/19/1 446/20/1
f 568/17/1 567/18/1 446/19/1 447/20/1
f 569/17/1 568/18/1 447/19/1 448/20/1
f 570/29/1 569/30/1 448/31/1 449/32/1
f 571/29/1 570/30/1 449/31/1 450/32/1
f 572/5/1 571/6/1 450/7/1 451/8/1
f 573/5/1 572/6/1 451/7/1 452/8/1
f 574/29/1 573/30/1 452/31/1 453/32/1
f 575/5/1 574/6/1 453/7/1 454/8/1
f 576/5/1 575/6/1 454/7/1 455/8/1
f 577/5/1 576/6/1 455/7/1 456/8/1
f 578/29/1 577/30/1 456/31/1 457/32/1
f 579/5/1 578/6/1 457/7/1 458/8/1
f 580/5/1 579/6/1 458/7/1 459/8/1
f 581/5/1 580/6/1 459/7/1 460/8/1
f 582/5/1 581/6/1 460/7/1 461/8/1
f 583/5/1 582/6/1 461/7/1 462/8/1
f 584/5/1 583/6/1 462/7/1 463/8/1
f 585/5/1 584/6/1 463/7/1 464/8/1
f 586/5/1 585/6/1 464/7/1 465/8/1
f 587/5/1 586/6/1 465/7/1 466/8/1
f 588/5/1 587/6/1 466/7/1 467/8/1
f 589/5/1 588/6/1 467/7/1 468/8/1
f 590/5/1 589/6/1 468/7/1 469/8/1
f 591/5/1 590/6/1 469/7/1 470/8/1
f 592/5/1 591/6/1 470/7/1 471/8/1
f 593/29/1 592/30/1 471/31/1 472/32/1
f 594/29/1 593/30/1 472/31/1 473/32/1
f 595/5/1 594/6/1 473/7/1 474/8/1
f 596/13/1 595/14/1 474/15/1 475/16/1
f 597/29/1 596/30/1 475/31/1 476/32/1
f 598/29/1 597/30/1 476/31/1 477/32/1
f 599/5/1 598/6/1 477/7/1 478/8/1
f 600/5/1 599/6/1 478/7/1 479/8/1
f 601/5/1 600/6/1 479/7/1 480/8/1
f 602/5/1 601/6/1 480/7/1 481/8/1
f 603/5/1 602/6/1 481/7/1 482/8/1
f 604/21/1 603/22/1 482/23/1 483/24/1
f 605/29/1 606/30/1 485/31/1 484/32/1
f 607/5/1 605/6/1 484/7/1 486/8/1
f 608/17/1 607/18/1 486/19/1 487/20/1
f 609/9/1 608/10/1 487/11/1 488/12/1
f 610/13/1 609/14/1 488/15/1 489/16/1
f 611/9/1 610/10/1 489/11/1 490/12/1
f 612/21/1 611/22/1 490/23/1 491/24/1
f 613/9/1 612/10/1 491/11/1 492/12/1
f 614/21/1 613/22/1 492/23/1 493/24/1
f 615/21/1 614/22/1 493/23/1 494/24/1
f 616/21/1 615/22/1 494/23/1 495/24/1
f 617/21/1 616/22/1 495/23/1 496/24/1
f 618/21/1 617/22/1 496/23/1 497/24/1
f 619/21/1 618/22/1 497/23/1 498/24/1
f 620/29/1 619/30/1 498/31/1 499/32/1
f 621/29/1 620/30/1 499/31/1 500/32/1
f 622/29/1 621/30/1 500/31/1 501/32/1
f 623/29/1 622/30/1 501/31/1 502/32/1
f 624/29/1 623/30/1 502/31/1 503/32/1
f 625/5/1 624/6/1 503/7/1 504/8/1
f 626/17/1 625/18/1 504/19/1 505/20/1
f 627/29/1 626/30/1 505/31/1 506/32/1
f 628/5/1 627/6/1 506/7/1 507/8/1
f 629/17/1 628/18/1 507/19/1 508/20/1
f 630/1/1 629/2/1 508/3/1 509/4/1
f 631/1/1 630/2/1 509/3/1 510/4/1
f 632/1/1 631/2/1 510/3/1 511/4/1
f 633/21/1 632/22/1 511/23/1 512/24/1
f 634/1/1 633/2/1 512/3/1 513/4/1
f 635/29/1 634/30/1 513/31/1 514/32/1
f 636/5/1 635/6/1 514/7/1 515/8/1
f 637/25/1 636/26/1 515/27/1 516/28/1
f 638/21/1 637/22/1 516/23/1 517/24/1
f 639/25/1 638/26/1 517/27/1 518/28/1
f 640/29/1 639/30/1 518/31/1 519/32/1
f 641/29/1 640/30/1 519/31/1 520/32/1
f 642/5/1 641/6/1 520/7/1 521/8/1
f 643/17/1 642/18/1 521/19/1 522/20/1
f 644/25/1 643/26/1 522/27/1 523/28/1
f 645/13/1 644/14/1 523/15/1 524/16/1
f 646/9/1 645/10/1 524/11/1 525/12/1
f 647/21/1 646/22/1 525/23/1 526/24/1
f 648/21/1 647/22/1 526/23/1 527/24/1
f 649/21/1 648/22/1 527/23/1 528/24/1
f 650/17/1 649/18/1 528/19/1 529/20/1
f 651/25/1 650/26/1 529/27/1 530/28/1
f 652/13/1 651/14/1 530/15/1 531/16/1
f 653/9/1 652/10/1 531/11/1 532/12/1
f 654/21/1 653/22/1 532/23/1 533/24/1
f 655/1/1 654/2/1 533/3/1 534/4/1
f 656/29/1 657/30/1 536/31/1 535/32/1
f 658/29/1 659/30/1 538/31/1 537/32/1
f 660/29/1 658/30/1 537/31/1 539/32/1
f 661/29/1 660/30/1 539/31/1 540/32/1
f 662/5/1 661/6/1 540/7/1 541/8/1
f 663/5/1 662/6/1 541/7/1 542/8/1
f 664/5/1 663/6/1 542/7/1 543/8/1
f 665/5/1 664/6/1 543/7/1 544/8/1
f 666/29/1 665/30/1 544/31/1 545/32/1
f 667/29/1 666/30/1 545/31/1 546/32/1
f 668/5/1 667/6/1 546/7/1 547/8/1
f 669/29/1 668/30/1 547/31/1 548/32/1
f 670/5/1 669/6/1 548/7/1 549/8/1
f 671/29/1 670/30/1 549/31/1 550/32/1
f 672/29/1 671/30/1 550/31/1 551/32/1
f 673/5/1 672/6/1 551/7/1 552/8/1
f 674/5/1 673/6/1 552/7/1 553/8/1
f 675/5/1 674/6/1 553/7/1 554/8/1
f 676/5/1 675/6/1 554/7/1 555/8/1
f 677/5/1 676/6/1 555/7/1 556/8/1
f 678/5/1 677/6/1 556/7/1 557/8/1
f 679/29/1 678/30/1 557/31/1 558/32/1
f 680/5/1 679/6/1 558/7/1 559/8/1
f 681/29/1 680/30/1 559/31/1 560/32/1
f 682/29/1 681/30/1 560/31/1 561/32/1
f 683/5/1 682/6/1 561/7/1 562/8/1
f 684/29/1 683/30/1 562/31/1 563/32/1
f 685/29/1 684/30/1 563/31/1 564/32/1
f 686/5/1 685/6/1 564/7/1 565/8/1
f 687/5/1 686/6/1 565/7/1 566/8/1
f 688/5/1 687/6/1 566/7/1 567/8/1
f 689/5/1 688/6/1 567/7/1 568/8/1
f 690/17/1 689/18/1 568/19/1 569/20/1
f 691/17/1 690/18/1 569/19/1 570/20/1
f 692/17/1 691/18/1 570/19/1 571/20/1
f 693/5/1 692/6/1 571/7/1 572/8/1
f 694/29/1 693/30/1 572/31/1 573/32/1
f 695/29/1 694/30/1 573/31/1 574/32/1
f 696/5/1 695/6/1 574/7/1 575/8/1
f 697/5/1 696/6/1 575/7/1 576/8/1
f 698/5/1 697/6/1 576/7/1 577/8/1
f 699/29/1 698/30/1 577/31/1 578/32/1
f 700/5/1 699/6/1 578/7/1 579/8/1
f 701/29/1 700/30/1 579/31/1 580/32/1
f 702/5/1 701/6/1 580/7/1 581/8/1
f 703/29/1 702/30/1 581/31/1 582/32/1
f 704/5/1 703/6/1 582/7/1 583/8/1
f 705/5/1 704/6/1 583/7/1 584/8/1
f 706/5/1 705/6/1 584/7/1 585/8/1
f 707/5/1 706/6/1 585/7/1 586/8/1
f 708/5/1 707/6/1 586/7/1 587/8/1
f 709/5/1 708/6/1 587/7/1 588/8/1
f 710/5/1 709/6/1 588/7/1 589/8/1
f 711/5/1 710/6/1 589/7/1 590/8/1
f 712/29/1 711/30/1 590/31/1 591/32/1
f 713/5/1 712/6/1 591/7/1 592/8/1
f 714/5/1 713/6/1 592/7/1 593/8/1
f 715/13/1 714/14/1 593/15/1 594/16/1
f 716/21/1 715/22/1 594/23/1 595/24/1
f 717/21/1 716/22/1 595/23/1 596/24/1
f 718/13/1 717/14/1 596/15/1 597/16/1
f 719/29/1 718/30/1 597/31/1 598/32/1
f 720/29/1 719/30/1 598/31/1 599/32/1
f 721/5/1 720/6/1 599/7/1 600/8/1
f 722/5/1 721/6/1 600/7/1 601/8/1
f 723/29/1 722/30/1 601/31/1 602/32/1
f 724/5/1 723/6/1 602/7/1 603/8/1
f 725/21/1 724/22/1 603/23/1 604/24/1
f 726/5/1 727/6/1 606/7/1 605/8/1
f 728/17/1 726/18/1 605/19/1 607/20/1
f 729/25/1 728/26/1 607/27/1 608/28/1
f 730/9/1 729/10/1 608/11/1 609/12/1
f 731/9/1 730/10/1 609/11/1 610/12/1
f 732/21/1 731/22/1 610/23/1 611/24/1
f 733/21/1 732/22/1 611/23/1 612/24/1
f 734/21/1 733/22/1 612/23/1 613/24/1
f 735/17/1 734/18/1 613/19/1 614/20/1
f 736/25/1 735/26/1 614/27/1 615/28/1
f 737/13/1 736/14/1 615/15/1 616/16/1
f 738/9/1 737/10/1 616/11/1 617/12/1
f 739/21/1 738/22/1 617/23/1 618/24/1
f 740/21/1 739/22/1 618/23/1 619/24/1
f 741/21/1 740/22/1 619/23/1 620/24/1
f 742/21/1 741/22/1 620/23/1 621/24/1
f 743/21/1 742/22/1 621/23/1 622/24/1
f 744/29/1 743/30/1 622/31/1 623/32/1
f 745/29/1 744/30/1 623/31/1 624/32/1
f 746/29/1 745/30/1 624/31/1 625/32/1
f 747/29/1 746/30/1 625/31/1 626/32/1
f 748/29/1 747/30/1 626/31/1 627/32/1
f 749/5/1 748/6/1 627/7/1 628/8/1
f 750/17/1 749/18/1 628/19/1 629/20/1
f 751/25/1 750/26/1 629/27/1 630/28/1
f 752/13/1 751/14/1 630/15/1 631/16/1
f 753/9/1 752/10/1 631/11/1 632/12/1
f 754/9/1 753/10/1 632/11/1 633/12/1
f 755/9/1 754/10/1 633/11/1 634/12/1
f 756/29/1 755/30/1 634/31/1 635/32/1
f 757/5/1 756/6/1 635/7/1 636/8/1
f 758/9/1 757/10/1 636/11/1 637/12/1
f 759/5/1 758/6/1 637/7/1 638/8/1
f 760/21/1 759/22/1 638/23/1 639/24/1
f 761/17/1 760/18/1 639/19/1 640/20/1
f 762/29/1 761/30/1 640/31/1 641/32/1
f 763/5/1 762/6/1 641/7/1 642/8/1
f 764/17/1 763/18/1 642/19/1 643/20/1
f 765/25/1 764/26/1 643/27/1 644/28/1
f 766/21/1 765/22/1 644/23/1 645/24/1
f 767/9/1 766/10/1 645/11/1 646/12/1
f 768/1/1 767/2/1 646/3/1 647/4/1
f 769/21/1 768/22/1 647/23/1 648/24/1
f 770/21/1 769/22/1 648/23/1 649/24/1
f 771/1/1 770/2/1 649/3/1 650/4/1
f 772/1/1 771/2/1 650/3/1 651/4/1
f 773/1/1 772/2/1 651/3/1 652/4/1
f 774/9/1 773/10/1 652/11/1 653/12/1
f 775/21/1 774/22/1 653/23/1 654/24/1
f 776/1/1 775/2/1 654/3/1 655/4/1
f 777/1/1 778/2/1 657/3/1 656/4/1
f 779/29/1 780/30/1 659/31/1 658/32/1
f 781/5/1 779/6/1 658/7/1 660/8/1
f 782/5/1 781/6/1 660/7/1 661/8/1
f 783/5/1 782/6/1 661/7/1 662/8/1
f 784/5/1 783/6/1 662/7/1 663/8/1
f 785/1/1 784/2/1 663/3/1 664/4/1
f 786/5/1 785/6/1 664/7/1 665/8/1
f 787/29/1 786/30/1 665/31/1 666/32/1
f 788/5/1 787/6/1 666/7/1 667/8/1
f 789/5/1 788/6/1 667/7/1 668/8/1
f 790/29/1 789/30/1 668/31/1 669/32/1
f 791/1/1 790/2/1 669/3/1 670/4/1
f 792/5/1 791/6/1 670/7/1 671/8/1
f 793/29/1 792/30/1 671/31/1 672/32/1
f 794/17/1 793/18/1 672/19/1 673/20/1
f 795/17/1 794/18/1 673/19/1 674/20/1
f 796/1/1 795/2/1 674/3/1 675/4/1
f 797/5/1 796/6/1 675/7/1 676/8/1
f 798/5/1 797/6/1 676/7/1 677/8/1
f 799/29/1 798/30/1 677/31/1 678/32/1
f 800/1/1 799/2/1 678/3/1 679/4/1
f 801/1/1 800/2/1 679/3/1 680/4/1
f 802/29/1 801/30/1 680/31/1 681/32/1
f 803/5/1 802/6/1 681/7/1 682/8/1
f 804/29/1 803/30/1 682/31/1 683/32/1
f 805/29/1 804/30/1 683/31/1 684/32/1
f 806/29/1 805/30/1 684/31/1 685/32/1
f 807/29/1 806/30/1 685/31/1 686/32/1
f 808/29/1 807/30/1 686/31/1 687/32/1
f 809/29/1 808/30/1 687/31/1 688/32/1
f 810/29/1 809/30/1 688/31/1 689/32/1
f 811/17/1 810/18/1 689/19/1 690/20/1
f 812/17/1 811/18/1 690/19/1 691/20/1
f 813/17/1 812/18/1 691/19/1 692/20/1
f 814/17/1 813/18/1 692/19/1 693/20/1
f 815/17/1 814/18/1 693/19/1 694/20/1
f 816/17/1 815/18/1 694/19/1 695/20/1
f 817/29/1 816/30/1 695/31/1 696/32/1
f 818/5/1 817/6/1 696/7/1 697/8/1
f 819/5/1 818/6/1 697/7/1 698/8/1
f 820/5/1 819/6/1 698/7/1 699/8/1
f 821/5/1 820/6/1 699/7/1 700/8/1
f 822/5/1 821/6/1 700/7/1 701/8/1
f 823/5/1 822/6/1 701/7/1 702/8/1
f 824/5/1 823/6/1 702/7/1 703/8/1
f 825/29/1 824/30/1 703/31/1 704/32/1
f 826/29/1 825/30/1 704/31/1 705/32/1
f 827/29/1 826/30/1 705/31/1 706/32/1
f 828/5/1 827/6/1 706/7/1 707/8/1
f 829/13/1 828/14/1 707/15/1 708/16/1
f 830/13/1 829/14/1 708/15/1 709/16/1
f 831/13/1 830/14/1 709/15/1 710/16/1
f 832/13/1 831/14/1 710/15/1 711/16/1
f 833/29/1 832/30/1 711/31/1 712/32/1
f 834/5/1 833/6/1 712/7/1 713/8/1
f 835/13/1 834/14/1 713/15/1 714/16/1
f 836/13/1 835/14/1 714/15/1 715/16/1
f 837/13/1 836/14/1 715/15/1 716/16/1
f 838/13/1 837/14/1 716/15/1 717/16/1
f 839/1/1 838/2/1 717/3/1 718/4/1
f 840/13/1 839/14/1 718/15/1 719/16/1
f 841/29/1 840/30/1 719/31/1 720/32/1
f 842/29/1 841/30/1 720/31/1 721/32/1
f 843/5/1 842/6/1 721/7/1 722/8/1
f 844/29/1 843/30/1 722/31/1 723/32/1
f 845/5/1 844/6/1 723/7/1 724/8/1
f 846/21/1 845/22/1 724/23/1 725/24/1
f 847/5/1 848/6/1 727/7/1 726/8/1
f 849/17/1 847/18/1 726/19/1 728/20/1
f 850/25/1 849/26/1 728/27/1 729/28/1
f 851/9/1 850/10/1 729/11/1 730/12/1
f 852/9/1 851/10/1 730/11/1 731/12/1
f 853/21/1 852/22/1 731/23/1 732/24/1
f 854/21/1 853/22/1 732/23/1 733/24/1
f 855/21/1 854/22/1 733/23/1 734/24/1
f 856/29/1 855/30/1 734/31/1 735/32/1
f 857/21/1 856/22/1 735/23/1 736/24/1
f 858/17/1 857/18/1 736/19/1 737/20/1
f 859/25/1 858/26/1 737/27/1 738/28/1
f 860/21/1 859/22/1 738/23/1 739/24/1
f 861/21/1 860/22/1 739/23/1 740/24/1
f 862/21/1 861/22/1 740/23/1 741/24/1
f 863/9/1 862/10/1 741/11/1 742/12/1
f 864/9/1 863/10/1 742/11/1 743/12/1
f 865/1/1 864/2/1 743/3/1 744/4/1
f 866/1/1 865/2/1 744/3/1 745/4/1
f 867/29/1 866/30/1 745/31/1 746/32/1
f 868/5/1 867/6/1 746/7/1 747/8/1
f 869/9/1 868/10/1 747/11/1 748/12/1
f 870/25/1 869/26/1 748/27/1 749/28/1
f 871/13/1 870/14/1 749/15/1 750/16/1
f 872/9/1 871/10/1 750/11/1 751/12/1
f 873/9/1 872/10/1 751/11/1 752/12/1
f 874/9/1 873/10/1 752/11/1 753/12/1
f 875/9/1 874/10/1 753/11/1 754/12/1
f 876/21/1 875/22/1 754/23/1 755/24/1
f 877/1/1 876/2/1 755/3/1 756/4/1
f 878/9/1 877/10/1 756/11/1 757/12/1
f 879/5/1 878/6/1 757/7/1 758/8/1
f 880/1/1 879/2/1 758/3/1 759/4/1
f 881/5/1 880/6/1 759/7/1 760/8/1
f 882/9/1 881/10/1 760/11/1 761/12/1
f 883/9/1 882/10/1 761/11/1 762/12/1
f 884/21/1 883/22/1 762/23/1 763/24/1
f 885/5/1 884/6/1 763/7/1 764/8/1
f 886/17/1 885/18/1 764/19/1 765/20/1
f 887/21/1 886/22/1 765/23/1 766/24/1
f 888/13/1 887/14/1 766/15/1 767/16/1
f 889/9/1 888/10/1 767/11/1 768/12/1
f 890/21/1 889/22/1 768/23/1 769/24/1
f 891/1/1 890/2/1 769/3/1 770/4/1
f 892/1/1 891/2/1 770/3/1 771/4/1
f 893/1/1 892/2/1 771/3/1 772/4/1
f 894/1/1 893/2/1 772/3/1 773/4/1
f 895/13/1 894/14/1 773/15/1 774/16/1
f 896/9/1 895/10/1 774/11/1 775/12/1
f 897/21/1 896/22/1 775/23/1 776/24/1
f 898/29/1 899/30/1 778/31/1 777/32/1
f 900/29/1 901/30/1 780/31/1 779/32/1
f 902/5/1 900/6/1 779/7/1 781/8/1
f 903/5/1 902/6/1 781/7/1 782/8/1
f 904/29/1 903/30/1 782/31/1 783/32/1
f 905/5/1 904/6/1 783/7/1 784/8/1
f 906/1/1 905/2/1 784/3/1 785/4/1
f 907/5/1 906/6/1 785/7/1 786/8/1
f 908/1/1 907/2/1 786/3/1 787/4/1
f 909/5/1 908/6/1 787/7/1 788/8/1
f 910/5/1 909/6/1 788/7/1 789/8/1
f 911/1/1 910/2/1 789/3/1 790/4/1
f 912/1/1 911/2/1 790/3/1 791/4/1
f 913/1/1 912/2/1 791/3/1 792/4/1
f 914/5/1 913/6/1 792/7/1 793/8/1
f 915/1/1 914/2/1 793/3/1 794/4/1
f 916/1/1 915/2/1 794/3/1 795/4/1
f 917/1/1 916/2/1 795/3/1 796/4/1
f 918/1/1 917/2/1 796/3/1 797/4/1
f 919/1/1 918/2/1 797/3/1 798/4/1
f 920/29/1 919/30/1 798/31/1 799/32/1
f 921/17/1 920/18/1 799/19/1 800/20/1
f 922/1/1 921/2/1 800/3/1 801/4/1
f 923/17/1 922/18/1 801/19/1 802/20/1
f 924/5/1 923/6/1 802/7/1 803/8/1
f 925/5/1 924/6/1 803/7/1 804/8/1
f 926/29/1 925/30/1 804/31/1 805/32/1
f 927/5/1 926/6/1 805/7/1 806/8/1
f 928/5/1 927/6/1 806/7/1 807/8/1
f 929/29/1 928/30/1 807/31/1 808/32/1
f 930/29/1 929/30/1 808/31/1 809/32/1
f 931/5/1 930/6/1 809/7/1 810/8/1
f 932/5/1 931/6/1 810/7/1 811/8/1
f 933/5/1 932/6/1 811/7/1 812/8/1
f 934/17/1 933/18/1 812/19/1 813/20/1
f 935/17/1 934/18/1 813/19/1 814/20/1
f 936/17/1 935/18/1 814/19/1 815/20/1
f 937/29/1 936/30/1 815/31/1 816/32/1
f 938/29/1 937/30/1 816/31/1 817/32/1
f 939/29/1 938/30/1 817/31/1 818/32/1
f 940/29/1 939/30/1 818/31/1 819/32/1
f 941/29/1 940/30/1 819/31/1 820/32/1
f 942/29/1 941/30/1 820/31/1 821/32/1
f 943/29/1 942/30/1 821/31/1 822/32/1
f 944/29/1 943/30/1 822/31/1 823/32/1
f 945/5/1 944/6/1 823/7/1 824/8/1
f 946/5/1 945/6/1 824/7/1 825/8/1
f 947/5/1 946/6/1 825/7/1 826/8/1
f 948/5/1 947/6/1 826/7/1 827/8/1
f 949/13/1 948/14/1 827/15/1 828/16/1
f 950/13/1 949/14/1 828/15/1 829/16/1
f 951/13/1 950/14/1 829/15/1 830/16/1
f 952/13/1 951/14/1 830/15/1 831/16/1
f 953/29/1 952/30/1 831/31/1 832/32/1
f 954/29/1 953/30/1 832/31/1 833/32/1
f 955/5/1 954/6/1 833/7/1 834/8/1
f 956/1/1 955/2/1 834/3/1 835/4/1
f 957/13/1 956/14/1 835/15/1 836/16/1
f 958/13/1 957/14/1 836/15/1 837/16/1
f 959/13/1 958/14/1 837/15/1 838/16/1
f 960/1/1 959/2/1 838/3/1 839/4/1
f 961/1/1 960/2/1 839/3/1 840/4/1
f 962/13/1 961/14/1 840/15/1 841/16/1
f 963/29/1 962/30/1 841/31/1 842/32/1
f 964/29/1 963/30/1 842/31/1 843/32/1
f 965/5/1 964/6/1 843/7/1 844/8/1
f 966/5/1 965/6/1 844/7/1 845/8/1
f 967/21/1 966/22/1 845/23/1 846/24/1
f 968/5/1 969/6/1 848/7/1 847/8/1
f 970/17/1 968/18/1 847/19/1 849/20/1
f 971/25/1 970/26/1 849/27/1 850/28/1
f 972/9/1 971/10/1 850/11/1 851/12/1
f 973/9/1 972/10/1 851/11/1 852/12/1
f 974/9/1 973/10/1 852/11/1 853/12/1
f 975/9/1 974/10/1 853/11/1 854/12/1
f 976/21/1 975/22/1 854/23/1 855/24/1
f 977/21/1 976/22/1 855/23/1 856/24/1
f 978/21/1 977/22/1 856/23/1 857/24/1
f 979/9/1 978/10/1 857/11/1 858/12/1
f 980/17/1 979/18/1 858/19/1 859/20/1
f 981/25/1 980/26/1 859/27/1 860/28/1
f 982/21/1 981/22/1 860/23/1 861/24/1
f 983/21/1 982/22/1 861/23/1 862/24/1
f 984/21/1 983/22/1 862/23/1 863/24/1
f 985/21/1 984/22/1 863/23/1 864/24/1
f 986/21/1 985/22/1 864/23/1 865/24/1
f 987/21/1 986/22/1 865/23/1 866/24/1
f 988/1/1 987/2/1 866/3/1 867/4/1
f 989/1/1 988/2/1 867/3/1 868/4/1
f 990/29/1 989/30/1 868/31/1 869/32/1
f 991/29/1 990/30/1 869/31/1 870/32/1
f 992/5/1 991/6/1 870/7/1 871/8/1
f 993/9/1 992/10/1 871/11/1 872/12/1
f 994/9/1 993/10/1 872/11/1 873/12/1
f 995/9/1 994/10/1 873/11/1 874/12/1
f 996/9/1 995/10/1 874/11/1 875/12/1
f 997/9/1 996/10/1 875/11/1 876/12/1
f 998/9/1 997/10/1 876/11/1 877/12/1
f 999/9/1 998/10/1 877/11/1 878/12/1
f 1000/25/1 999/26/1 878/27/1 879/28/1
f 1001/1/1 1000/2/1 879/3/1 880/4/1
f 1002/25/1 1001/26/1 880/27/1 881/28/1
f 1003/17/1 1002/18/1 881/19/1 882/20/1
f 1004/25/1 1003/26/1 882/27/1 883/28/1
f 1005/13/1 1004/14/1 883/15/1 884/16/1
f 1006/21/1 1005/22/1 884/23/1 885/24/1
f 1007/21/1 1006/22/1 885/23/1 886/24/1
f 1008/21/1 1007/22/1 886/23/1 887/24/1
f 1009/5/1 1008/6/1 887/7/1 888/8/1
f 1010/21/1 1009/22/1 888/23/1 889/24/1
f 1011/21/1 1010/22/1 889/23/1 890/24/1
f 1012/13/1 1011/14/1 890/15/1 891/16/1
f 1013/1/1 1012/2/1 891/3/1 892/4/1
f 1014/21/1 1013/22/1 892/23/1 893/24/1
f 1015/21/1 1014/22/1 893/23/1 894/24/1
f 1016/1/1 1015/2/1 894/3/1 895/4/1
f 1017/9/1 1016/10/1 895/11/1 896/12/1
f 1018/21/1 1017/22/1 896/23/1 897/24/1
f 1019/21/1 1020/22/1 899/23/1 898/24/1
f 1021/29/1 1022/30/1 901/31/1 900/32/1
f 1023/5/1 1021/6/1 900/7/1 902/8/1
f 1024/5/1 1023/6/1 902/7/1 903/8/1
f 1025/5/1 1024/6/1 903/7/1 904/8/1
f 1026/1/1 1025/2/1 904/3/1 905/4/1
f 1027/1/1 1026/2/1 905/3/1 906/4/1
f 1028/5/1 1027/6/1 906/7/1 907/8/1
f 1029/1/1 1028/2/1 907/3/1 908/4/1
f 1030/1/1 1029/2/1 908/3/1 909/4/1
f 1031/1/1 1030/2/1 909/3/1 910/4/1
f 1032/1/1 1031/2/1 910/3/1 911/4/1
f 1033/1/1 1032/2/1 911/3/1 912/4/1
f 1034/5/1 1033/6/1 912/7/1 913/8/1
f 1035/5/1 1034/6/1 913/7/1 914/8/1
f 1036/5/1 1035/6/1 914/7/1 915/8/1
f 1037/29/1 1036/30/1 915/31/1 916/32/1
f 1038/29/1 1037/30/1 916/31/1 917/32/1
f 1039/1/1 1038/2/1 917/3/1 918/4/1
f 1040/17/1 1039/18/1 918/19/1 919/20/1
f 1041/17/1 1040/18/1 919/19/1 920/20/1
f 1042/17/1 1041/18/1 920/19/1 921/20/1
f 1043/17/1 1042/18/1 921/19/1 922/20/1
f 1044/17/1 1043/18/1 922/19/1 923/20/1
f 1045/5/1 1044/6/1 923/7/1 924/8/1
f 1046/5/1 1045/6/1 924/7/1 925/8/1
f 1047/5/1 1046/6/1 925/7/1 926/8/1
f 1048/29/1 1047/30/1 926/31/1 927/32/1
f 1049/29/1 1048/30/1 927/31/1 928/32/1
f 1050/5/1 1049/6/1 928/7/1 929/8/1
f 1051/29/1 1050/30/1 929/31/1 930/32/1
f 1052/29/1 1051/30/1 930/31/1 931/32/1
f 1053/29/1 1052/30/1 931/31/1 932/32/1
f 1054/5/1 1053/6/1 932/7/1 933/8/1
f 1055/17/1 1054/18/1 933/19/1 934/20/1
f 1056/29/1 1055/30/1 934/31/1 935/32/1
f 1057/29/1 1056/30/1 935/31/1 936/32/1
f 1058/29/1 1057/30/1 936/31/1 937/32/1
f 1059/29/1 1058/30/1 937/31/1 938/32/1
f 1060/29/1 1059/30/1 938/31/1 939/32/1
f 1061/29/1 1060/30/1 939/31/1 940/32/1
f 1062/29/1 1061/30/1 940/31/1 941/32/1
f 1063/29/1 1062/30/1 941/31/1 942/32/1
f 1064/29/1 1063/30/1 942/31/1 943/32/1
f 1065/29/1 1064/30/1 943/31/1 944/32/1
f 1066/5/1 1065/6/1 944/7/1 945/8/1
f 1067/29/1 1066/30/1 945/31/1 946/32/1
f 1068/29/1 1067/30/1 946/31/1 947/32/1
f 1069/29/1 1068/30/1 947/31/1 948/32/1
f 1070/5/1 1069/6/1 948/7/1 949/8/1
f 1071/5/1 1070/6/1 949/7/1 950/8/1
f 1072/5/1 1071/6/1 950/7/1 951/8/1
f 1073/13/1 1072/14/1 951/15/1 952/16/1
f 1074/29/1 1073/30/1 952/31/1 953/32/1
f 1075/5/1 1074/6/1 953/7/1 954/8/1
f 1076/13/1 1075/14/1 954/15/1 955/16/1
f 1077/13/1 1076/14/1 955/15/1 956/16/1
f 1078/13/1 1077/14/1 956/15/1 957/16/1
f 1079/13/1 1078/14/1 957/15/1 958/16/1
f 1080/13/1 1079/14/1 958/15/1 959/16/1
f 1081/13/1 1080/14/1 959/15/1 960/16/1
f 1082/13/1 1081/14/1 960/15/1 961/16/1
f 1083/13/1 1082/14/1 961/15/1 962/16/1
f 1084/13/1 1083/14/1 962/15/1 963/16/1
f 1085/29/1 1084/30/1 963/31/1 964/32/1
f 1086/5/1 1085/6/1 964/7/1 965/8/1
f 1087/5/1 1086/6/1 965/7/1 966/8/1
f 1088/21/1 1087/22/1 966/23/1 967/24/1
f 1089/5/1 1090/6/1 969/7/1 968/8/1
f 1091/17/1 1089/18/1 968/19/1 970/20/1
f 1092/25/1 1091/26/1 970/27/1 971/28/1
f 1093/9/1 1092/10/1 971/11/1 972/12/1
f 1094/21/1 1093/22/1 972/23/1 973/24/1
f 1095/21/1 1094/22/1 973/23/1 974/24/1
f 1096/9/1 1095/10/1 974/11/1 975/12/1
f 1097/9/1 1096/10/1 975/11/1 976/12/1
f 1098/13/1 1097/14/1 976/15/1 977/16/1
f 1099/9/1 1098/10/1 977/11/1 978/12/1
f 1100/9/1 1099/10/1 978/11/1 979/12/1
f 1101/9/1 1100/10/1 979/11/1 980/12/1
f 1102/21/1 1101/22/1 980/23/1 981/24/1
f 1103/13/1 1102/14/1 981/15/1 982/16/1
f 1104/9/1 1103/10/1 982/11/1 983/12/1
f 1105/21/1 1104/22/1 983/23/1 984/24/1
f 1106/1/1 1105/2/1 984/3/1 985/4/1
f 1107/21/1 1106/22/1 985/23/1 986/24/1
f 1108/9/1 1107/10/1 986/11/1 987/12/1
f 1109/21/1 1108/22/1 987/23/1 988/24/1
f 1110/1/1 1109/2/1 988/3/1 989/4/1
f 1111/1/1 1110/2/1 989/3/1 990/4/1
f 1112/9/1 1111/10/1 990/11/1 991/12/1
f 1113/9/1 1112/10/1 991/11/1 992/12/1
f 1114/9/1 1113/10/1 992/11/1 993/12/1
f 1115/21/1 1114/22/1 993/23/1 994/24/1
f 1116/21/1 1115/22/1 994/23/1 995/24/1
f 1117/9/1 1116/10/1 995/11/1 996/12/1
f 1118/21/1 1117/22/1 996/23/1 997/24/1
f 1119/21/1 1118/22/1 997/23/1 998/24/1
f 1120/21/1 1119/22/1 998/23/1 999/24/1
f 1121/21/1 1120/22/1 999/23/1 1000/24/1
f 1122/17/1 1121/18/1 1000/19/1 1001/20/1
f 1123/21/1 1122/22/1 1001/23/1 1002/24/1
f 1124/21/1 1123/22/1 1002/23/1 1003/24/1
f 1125/21/1 1124/22/1 1003/23/1 1004/24/1
f 1126/25/1 1125/26/1 1004/27/1 1005/28/1
f 1127/21/1 1126/22/1 1005/23/1 1006/24/1
f 1128/29/1 1127/30/1 1006/31/1 1007/32/1
f 1129/29/1 1128/30/1 1007/31/1 1008/32/1
f 1130/29/1 1129/30/1 1008/31/1 1009/32/1
f 1131/29/1 1130/30/1 1009/31/1 1010/32/1
f 1132/1/1 1131/2/1 1010/3/1 1011/4/1
f 1133/17/1 1132/18/1 1011/19/1 1012/20/1
f 1134/1/1 1133/2/1 1012/3/1 1013/4/1
f 1135/1/1 1134/2/1 1013/3/1 1014/4/1
f 1136/21/1 1135/22/1 1014/23/1 1015/24/1
f 1137/21/1 1136/22/1 1015/23/1 1016/24/1
f 1138/1/1 1137/2/1 1016/3/1 1017/4/1
f 1139/21/1 1138/22/1 1017/23/1 1018/24/1
f 1140/21/1 1141/22/1 1020/23/1 1019/24/1
f 1142/29/1 1143/30/1 1022/31/1 1021/32/1
f 1144/5/1 1142/6/1 1021/7/1 1023/8/1
f 1145/29/1 1144/30/1 1023/31/1 1024/32/1
f 1146/29/1 1145/30/1 1024/31/1 1025/32/1
f 1147/1/1 1146/2/1 1025/3/1 1026/4/1
f 1148/5/1 1147/6/1 1026/7/1 1027/8/1
f 1149/29/1 1148/30/1 1027/31/1 1028/32/1
f 1150/29/1 1149/30/1 1028/31/1 1029/32/1
f 1151/5/1 1150/6/1 1029/7/1 1030/8/1
f 1152/1/1 1151/2/1 1030/3/1 1031/4/1
f 1153/1/1 1152/2/1 1031/3/1 1032/4/1
f 1154/1/1 1153/2/1 1032/3/1 1033/4/1
f 1155/5/1 1154/6/1 1033/7/1 1034/8/1
f 1156/29/1 1155/30/1 1034/31/1 1035/32/1
f 1157/29/1 1156/30/1 1035/31/1 1036/32/1
f 1158/29/1 1157/30/1 1036/31/1 1037/32/1
f 1159/29/1 1158/30/1 1037/31/1 1038/32/1
f 1160/29/1 1159/30/1 1038/31/1 1039/32/1
f 1161/29/1 1160/30/1 1039/31/1 1040/32/1
f 1162/29/1 1161/30/1 1040/31/1 1041/32/1
f 1163/5/1 1162/6/1 1041/7/1 1042/8/1
f 1164/17/1 1163/18/1 1042/19/1 1043/20/1
f 1165/29/1 1164/30/1 1043/31/1 1044/32/1
f 1166/29/1 1165/30/1 1044/31/1 1045/32/1
f 1167/29/1 1166/30/1 1045/31/1 1046/32/1
f 1168/29/1 1167/30/1 1046/31/1 1047/32/1
f 1169/17/1 1168/18/1 1047/19/1 1048/20/1
f 1170/29/1 1169/30/1 1048/31/1 1049/32/1
f 1171/29/1 1170/30/1 1049/31/1 1050/32/1
f 1172/29/1 1171/30/1 1050/31/1 1051/32/1
f 1173/29/1 1172/30/1 1051/31/1 1052/32/1
f 1174/17/1 1173/18/1 1052/19/1 1053/20/1
f 1175/17/1 1174/18/1 1053/19/1 1054/20/1
f 1176/17/1 1175/18/1 1054/19/1 1055/20/1
f 1177/17/1 1176/18/1 1055/19/1 1056/20/1
f 1178/29/1 1177/30/1 1056/31/1 1057/32/1
f 1179/29/1 1178/30/1 1057/31/1 1058/32/1
f 1180/5/1 1179/6/1 1058/7/1 1059/8/1
f 1181/29/1 1180/30/1 1059/31/1 1060/32/1
f 1182/29/1 1181/30/1 1060/31/1 1061/32/1
f 1183/29/1 1182/30/1 1061/31/1 1062/32/1
f 1184/29/1 1183/30/1 1062/31/1 1063/32/1
f 1185/29/1 1184/30/1 1063/31/1 1064/32/1
f 1186/29/1 1185/30/1 1064/31/1 1065/32/1
f 1187/5/1 1186/6/1 1065/7/1 1066/8/1
f 1188/29/1 1187/30/1 1066/31/1 1067/32/1
f 1189/29/1 1188/30/1 1067/31/1 1068/32/1
f 1190/29/1 1189/30/1 1068/31/1 1069/32/1
f 1191/29/1 1190/30/1 1069/31/1 1070/32/1
f 1192/29/1 1191/30/1 1070/31/1 1071/32/1
f 1193/29/1 1192/30/1 1071/31/1 1072/32/1
f 1194/29/1 1193/30/1 1072/31/1 1073/32/1
f 1195/29/1 1194/30/1 1073/31/1 1074/32/1
f 1196/5/1 1195/6/1 1074/7/1 1075/8/1
f 1197/13/1 1196/14/1 1075/15/1 1076/16/1
f 1198/13/1 1197/14/1 1076/15/1 1077/16/1
f 1199/13/1 1198/14/1 1077/15/1 1078/16/1
f 1200/13/1 1199/14/1 1078/15/1 1079/16/1
f 1201/13/1 1200/14/1 1079/15/1 1080/16/1
f 1202/13/1 1201/14/1 1080/15/1 1081/16/1
f 1203/13/1 1202/14/1 1081/15/1 1082/16/1
f 1204/13/1 1203/14/1 1082/15/1 1083/16/1
f 1205/29/1 1204/30/1 1083/31/1 1084/32/1
f 1206/5/1 1205/6/1 1084/7/1 1085/8/1
f 1207/5/1 1206/6/1 1085/7/1 1086/8/1
f 1208/5/1 1207/6/1 1086/7/1 1087/8/1
f 1209/21/1 1208/22/1 1087/23/1 1088/24/1
f 1210/5/1 1211/6/1 1090/7/1 1089/8/1
f 1212/17/1 1210/18/1 1089/19/1 1091/20/1
f 1213/25/1 1212/26/1 1091/27/1 1092/28/1
f 1214/13/1 1213/14/1 1092/15/1 1093/16/1
f 1215/9/1 1214/10/1 1093/11/1 1094/12/1
f 1216/9/1 1215/10/1 1094/11/1 1095/12/1
f 1217/9/1 1216/10/1 1095/11/1 1096/12/1
f 1218/21/1 1217/22/1 1096/23/1 1097/24/1
f 1219/21/1 1218/22/1 1097/23/1 1098/24/1
f 1220/21/1 1219/22/1 1098/23/1 1099/24/1
f 1221/21/1 1220/22/1 1099/23/1 1100/24/1
f 1222/1/1 1221/2/1 1100/3/1 1101/4/1
f 1223/21/1 1222/22/1 1101/23/1 1102/24/1
f 1224/21/1 1223/22/1 1102/23/1 1103/24/1
f 1225/21/1 1224/22/1 1103/23/1 1104/24/1
f 1226/21/1 1225/22/1 1104/23/1 1105/24/1
f 1227/21/1 1226/22/1 1105/23/1 1106/24/1
f 1228/21/1 1227/22/1 1106/23/1 1107/24/1
f 1229/1/1 1228/2/1 1107/3/1 1108/4/1
f 1230/1/1 1229/2/1 1108/3/1 1109/4/1
f 1231/9/1 1230/10/1 1109/11/1 1110/12/1
f 1232/29/1 1231/30/1 1110/31/1 1111/32/1
f 1233/9/1 1232/10/1 1111/11/1 1112/12/1
f 1234/9/1 1233/10/1 1112/11/1 1113/12/1
f 1235/21/1 1234/22/1 1113/23/1 1114/24/1
f 1236/21/1 1235/22/1 1114/23/1 1115/24/1
f 1237/21/1 1236/22/1 1115/23/1 1116/24/1
f 1238/21/1 1237/22/1 1116/23/1 1117/24/1
f 1239/21/1 1238/22/1 1117/23/1 1118/24/1
f 1240/1/1 1239/2/1 1118/3/1 1119/4/1
f 1241/9/1 1240/10/1 1119/11/1 1120/12/1
f 1242/17/1 1241/18/1 1120/19/1 1121/20/1
f 1243/25/1 1242/26/1 1121/27/1 1122/28/1
f 1244/17/1 1243/18/1 1122/19/1 1123/20/1
f 1245/9/1 1244/10/1 1123/11/1 1124/12/1
f 1246/21/1 1245/22/1 1124/23/1 1125/24/1
f 1247/21/1 1246/22/1 1125/23/1 1126/24/1
f 1248/25/1 1247/26/1 1126/27/1 1127/28/1
f 1249/21/1 1248/22/1 1127/23/1 1128/24/1
f 1250/1/1 1249/2/1 1128/3/1 1129/4/1
f 1251/21/1 1250/22/1 1129/23/1 1130/24/1
f 1252/1/1 1251/2/1 1130/3/1 1131/4/1
f 1253/1/1 1252/2/1 1131/3/1 1132/4/1
f 1254/1/1 1253/2/1 1132/3/1 1133/4/1
f 1255/17/1 1254/18/1 1133/19/1 1134/20/1
f 1256/1/1 1255/2/1 1134/3/1 1135/4/1
f 1257/1/1 1256/2/1 1135/3/1 1136/4/1
f 1258/9/1 1257/10/1 1136/11/1 1137/12/1
f 1259/21/1 1258/22/1 1137/23/1 1138/24/1
f 1260/1/1 1259/2/1 1138/3/1 1139/4/1
f 1261/1/1 1262/2/1 1141/3/1 1140/4/1
f 1263/29/1 1264/30/1 1143/31/1 1142/32/1
f 1265/5/1 1263/6/1 1142/7/1 1144/8/1
f 1266/29/1 1265/30/1 1144/31/1 1145/32/1
f 1267/29/1 1266/30/1 1145/31/1 1146/32/1
f 1268/1/1 1267/2/1 1146/3/1 1147/4/1
f 1269/5/1 1268/6/1 1147/7/1 1148/8/1
f 1270/29/1 1269/30/1 1148/31/1 1149/32/1
f 1271/29/1 1270/30/1 1149/31/1 1150/32/1
f 1272/29/1 1271/30/1 1150/31/1 1151/32/1
f 1273/29/1 1272/30/1 1151/31/1 1152/32/1
f 1274/5/1 1273/6/1 1152/7/1 1153/8/1
f 1275/1/1 1274/2/1 1153/3/1 1154/4/1
f 1276/1/1 1275/2/1 1154/3/1 1155/4/1
f 1277/1/1 1276/2/1 1155/3/1 1156/4/1
f 1278/1/1 1277/2/1 1156/3/1 1157/4/1
f 1279/29/1 1278/30/1 1157/31/1 1158/32/1
f 1280/29/1 1279/30/1 1158/31/1 1159/32/1
f 1281/29/1 1280/30/1 1159/31/1 1160/32/1
f 1282/29/1 1281/30/1 1160/31/1 1161/32/1
f 1283/1/1 1282/2/1 1161/3/1 1162/4/1
f 1284/1/1 1283/2/1 1162/3/1 1163/4/1
f 1285/5/1 1284/6/1 1163/7/1 1164/8/1
f 1286/29/1 1285/30/1 1164/31/1 1165/32/1
f 1287/29/1 1286/30/1 1165/31/1 1166/32/1
f 1288/29/1 1287/30/1 1166/31/1 1167/32/1
f 1289/17/1 1288/18/1 1167/19/1 1168/20/1
f 1290/17/1 1289/18/1 1168/19/1 1169/20/1
f 1291/29/1 1290/30/1 1169/31/1 1170/32/1
f 1292/29/1 1291/30/1 1170/31/1 1171/32/1
f 1293/29/1 1292/30/1 1171/31/1 1172/32/1
f 1294/29/1 1293/30/1 1172/31/1 1173/32/1
f 1295/29/1 1294/30/1 1173/31/1 1174/32/1
f 1296/17/1 1295/18/1 1174/19/1 1175/20/1
f 1297/29/1 1296/30/1 1175/31/1 1176/32/1
f 1298/29/1 1297/30/1 1176/31/1 1177/32/1
f 1299/29/1 1298/30/1 1177/31/1 1178/32/1
f 1300/29/1 1299/30/1 1178/31/1 1179/32/1
f 1301/29/1 1300/30/1 1179/31/1 1180/32/1
f 1302/29/1 1301/30/1 1180/31/1 1181/32/1
f 1303/29/1 1302/30/1 1181/31/1 1182/32/1
f 1304/29/1 1303/30/1 1182/31/1 1183/32/1
f 1305/29/1 1304/30/1 1183/31/1 1184/32/1
f 1306/29/1 1305/30/1 1184/31/1 1185/32/1
f 1307/29/1 1306/30/1 1185/31/1 1186/32/1
f 1308/5/1 1307/6/1 1186/7/1 1187/8/1
f 1309/21/1 1308/22/1 1187/23/1 1188/24/1
f 1310/1/1 1309/2/1 1188/3/1 1189/4/1
f 1311/21/1 1310/22/1 1189/23/1 1190/24/1
f 1312/21/1 1311/22/1 1190/23/1 1191/24/1
f 1313/21/1 1312/22/1 1191/23/1 1192/24/1
f 1314/29/1 1313/30/1 1192/31/1 1193/32/1
f 1315/29/1 1314/30/1 1193/31/1 1194/32/1
f 1316/29/1 1315/30/1 1194/31/1 1195/32/1
f 1317/5/1 1316/6/1 1195/7/1 1196/8/1
f 1318/21/1 1317/22/1 1196/23/1 1197/24/1
f 1319/21/1 1318/22/1 1197/23/1 1198/24/1
f 1320/21/1 1319/22/1 1198/23/1 1199/24/1
f 1321/1/1 1320/2/1 1199/3/1 1200/4/1
f 1322/1/1 1321/2/1 1200/3/1 1201/4/1
f 1323/1/1 1322/2/1 1201/3/1 1202/4/1
f 1324/1/1 1323/2/1 1202/3/1 1203/4/1
f 1325/13/1 1324/14/1 1203/15/1 1204/16/1
f 1326/29/1 1325/30/1 1204/31/1 1205/32/1
f 1327/5/1 1326/6/1 1205/7/1 1206/8/1
f 1328/29/1 1327/30/1 1206/31/1 1207/32/1
f 1329/5/1 1328/6/1 1207/7/1 1208/8/1
f 1330/21/1 1329/22/1 1208/23/1 1209/24/1
f 1331/5/1 1332/6/1 1211/7/1 1210/8/1
f 1333/17/1 1331/18/1 1210/19/1 1212/20/1
f 1334/9/1 1333/10/1 1212/11/1 1213/12/1
f 1335/9/1 1334/10/1 1213/11/1 1214/12/1
f 1336/9/1 1335/10/1 1214/11/1 1215/12/1
f 1337/9/1 1336/10/1 1215/11/1 1216/12/1
f 1338/9/1 1337/10/1 1216/11/1 1217/12/1
f 1339/9/1 1338/10/1 1217/11/1 1218/12/1
f 1340/9/1 1339/10/1 1218/11/1 1219/12/1
f 1341/9/1 1340/10/1 1219/11/1 1220/12/1
f 1342/21/1 1341/22/1 1220/23/1 1221/24/1
f 1343/21/1 1342/22/1 1221/23/1 1222/24/1
f 1344/1/1 1343/2/1 1222/3/1 1223/4/1
f 1345/21/1 1344/22/1 1223/23/1 1224/24/1
f 1346/21/1 1345/22/1 1224/23/1 1225/24/1
f 1347/21/1 1346/22/1 1225/23/1 1226/24/1
f 1348/21/1 1347/22/1 1226/23/1 1227/24/1
f 1349/9/1 1348/10/1 1227/11/1 1228/12/1
f 1350/9/1 1349/10/1 1228/11/1 1229/12/1
f 1351/9/1 1350/10/1 1229/11/1 1230/12/1
f 1352/9/1 1351/10/1 1230/11/1 1231/12/1
f 1353/9/1 1352/10/1 1231/11/1 1232/12/1
f 1354/9/1 1353/10/1 1232/11/1 1233/12/1
f 1355/9/1 1354/10/1 1233/11/1 1234/12/1
f 1356/21/1 1355/22/1 1234/23/1 1235/24/1
f 1357/21/1 1356/22/1 1235/23/1 1236/24/1
f 1358/21/1 1357/22/1 1236/23/1 1237/24/1
f 1359/9/1 1358/10/1 1237/11/1 1238/12/1
f 1360/21/1 1359/22/1 1238/23/1 1239/24/1
f 1361/1/1 1360/2/1 1239/3/1 1240/4/1
f 1362/9/1 1361/10/1 1240/11/1 1241/12/1
f 1363/1/1 1362/2/1 1241/3/1 1242/4/1
f 1364/17/1 1363/18/1 1242/19/1 1243/20/1
f 1365/21/1 1364/22/1 1243/23/1 1244/24/1
f 1366/21/1 1365/22/1 1244/23/1 1245/24/1
f 1367/21/1 1366/22/1 1245/23/1 1246/24/1
f 1368/25/1 1367/26/1 1246/27/1 1247/28/1
f 1369/21/1 1368/22/1 1247/23/1 1248/24/1
f 1370/21/1 1369/22/1 1248/23/1 1249/24/1
f 1371/21/1 1370/22/1 1249/23/1 1250/24/1
f 1372/1/1 1371/2/1 1250/3/1 1251/4/1
f 1373/1/1 1372/2/1 1251/3/1 1252/4/1
f 1374/1/1 1373/2/1 1252/3/1 1253/4/1
f 1375/1/1 1374/2/1 1253/3/1 1254/4/1
f 1376/21/1 1375/22/1 1254/23/1 1255/24/1
f 1377/21/1 1376/22/1 1255/23/1 1256/24/1
f 1378/25/1 1377/26/1 1256/27/1 1257/28/1
f 1379/13/1 1378/14/1 1257/15/1 1258/16/1
f 1380/9/1 1379/10/1 1258/11/1 1259/12/1
f 1381/21/1 1380/22/1 1259/23/1 1260/24/1
f 1382/29/1 1383/30/1 1262/31/1 1261/32/1
f 1384/29/1 1385/30/1 1264/31/1 1263/32/1
f 1386/5/1 1384/6/1 1263/7/1 1265/8/1
f 1387/29/1 1386/30/1 1265/31/1 1266/32/1
f 1388/29/1 1387/30/1 1266/31/1 1267/32/1
f 1389/29/1 1388/30/1 1267/31/1 1268/32/1
f 1390/5/1 1389/6/1 1268/7/1 1269/8/1
f 1391/29/1 1390/30/1 1269/31/1 1270/32/1
f 1392/1/1 1391/2/1 1270/3/1 1271/4/1
f 1393/1/1 1392/2/1 1271/3/1 1272/4/1
f 1394/1/1 1393/2/1 1272/3/1 1273/4/1
f 1395/1/1 1394/2/1 1273/3/1 1274/4/1
f 1396/1/1 1395/2/1 1274/3/1 1275/4/1
f 1397/1/1 1396/2/1 1275/3/1 1276/4/1
f 1398/1/1 1397/2/1 1276/3/1 1277/4/1
f 1399/1/1 1398/2/1 1277/3/1 1278/4/1
f 1400/1/1 1399/2/1 1278/3/1 1279/4/1
f 1401/29/1 1400/30/1 1279/31/1 1280/32/1
f 1402/29/1 1401/30/1 1280/31/1 1281/32/1
f 1403/1/1 1402/2/1 1281/3/1 1282/4/1
f 1404/1/1 1403/2/1 1282/3/1 1283/4/1
f 1405/29/1 1404/30/1 1283/31/1 1284/32/1
f 1406/29/1 1405/30/1 1284/31/1 1285/32/1
f 1407/29/1 1406/30/1 1285/31/1 1286/32/1
f 1408/29/1 1407/30/1 1286/31/1 1287/32/1
f 1409/29/1 1408/30/1 1287/31/1 1288/32/1
f 1410/29/1 1409/30/1 1288/31/1 1289/32/1
f 1411/17/1 1410/18/1 1289/19/1 1290/20/1
f 1412/17/1 1411/18/1 1290/19/1 1291/20/1
f 1413/17/1 1412/18/1 1291/19/1 1292/20/1
f 1414/29/1 1413/30/1 1292/31/1 1293/32/1
f 1415/5/1 1414/6/1 1293/7/1 1294/8/1
f 1416/17/1 1415/18/1 1294/19/1 1295/20/1
f 1417/17/1 1416/18/1 1295/19/1 1296/20/1
f 1418/29/1 1417/30/1 1296/31/1 1297/32/1
f 1419/29/1 1418/30/1 1297/31/1 1298/32/1
f 1420/29/1 1419/30/1 1298/31/1 1299/32/1
f 1421/29/1 1420/30/1 1299/31/1 1300/32/1
f 1422/29/1 1421/30/1 1300/31/1 1301/32/1
f 1423/29/1 1422/30/1 1301/31/1 1302/32/1
f 1424/29/1 1423/30/1 1302/31/1 1303/32/1
f 1425/29/1 1424/30/1 1303/31/1 1304/32/1
f 1426/29/1 1425/30/1 1304/31/1 1305/32/1
f 1427/21/1 1426/22/1 1305/23/1 1306/24/1
f 1428/21/1 1427/22/1 1306/23/1 1307/24/1
f 1429/29/1 1428/30/1 1307/31/1 1308/32/1
f 1430/5/1 1429/6/1 1308/7/1 1309/8/1
f 1431/29/1 1430/30/1 1309/31/1 1310/32/1
f 1432/29/1 1431/30/1 1310/31/1 1311/32/1
f 1433/5/1 1432/6/1 1311/7/1 1312/8/1
f 1434/29/1 1433/30/1 1312/31/1 1313/32/1
f 1435/29/1 1434/30/1 1313/31/1 1314/32/1
f 1436/29/1 1435/30/1 1314/31/1 1315/32/1
f 1437/5/1 1436/6/1 1315/7/1 1316/8/1
f 1438/13/1 1437/14/1 1316/15/1 1317/16/1
f 1439/13/1 1438/14/1 1317/15/1 1318/16/1
f 1440/13/1 1439/14/1 1318/15/1 1319/16/1
f 1441/13/1 1440/14/1 1319/15/1 1320/16/1
f 1442/13/1 1441/14/1 1320/15/1 1321/16/1
f 1443/13/1 1442/14/1 1321/15/1 1322/16/1
f 1444/13/1 1443/14/1 1322/15/1 1323/16/1
f 1445/13/1 1444/14/1 1323/15/1 1324/16/1
f 1446/29/1 1445/30/1 1324/31/1 1325/32/1
f 1447/5/1 1446/6/1 1325/7/1 1326/8/1
f 1448/5/1 1447/6/1 1326/7/1 1327/8/1
f 1449/29/1 1448/30/1 1327/31/1 1328/32/1
f 1450/5/1 1449/6/1 1328/7/1 1329/8/1
f 1451/21/1 1450/22/1 1329/23/1 1330/24/1
f 1452/5/1 1453/6/1 1332/7/1 1331/8/1
f 1454/17/1 1452/18/1 1331/19/1 1333/20/1
f 1455/25/1 1454/26/1 1333/27/1 1334/28/1
f 1456/9/1 1455/10/1 1334/11/1 1335/12/1
f 1457/9/1 1456/10/1 1335/11/1 1336/12/1
f 1458/9/1 1457/10/1 1336/11/1 1337/12/1
f 1459/1/1 1458/2/1 1337/3/1 1338/4/1
f 1460/1/1 1459/2/1 1338/3/1 1339/4/1
f 1461/13/1 1460/14/1 1339/15/1 1340/16/1
f 1462/21/1 1461/22/1 1340/23/1 1341/24/1
f 1463/21/1 1462/22/1 1341/23/1 1342/24/1
f 1464/21/1 1463/22/1 1342/23/1 1343/24/1
f 1465/21/1 1464/22/1 1343/23/1 1344/24/1
f 1466/21/1 1465/22/1 1344/23/1 1345/24/1
f 1467/25/1 1466/26/1 1345/27/1 1346/28/1
f 1468/13/1 1467/14/1 1346/15/1 1347/16/1
f 1469/9/1 1468/10/1 1347/11/1 1348/12/1
f 1470/21/1 1469/22/1 1348/23/1 1349/24/1
f 1471/9/1 1470/10/1 1349/11/1 1350/12/1
f 1472/1/1 1471/2/1 1350/3/1 1351/4/1
f 1473/9/1 1472/10/1 1351/11/1 1352/12/1
f 1474/9/1 1473/10/1 1352/11/1 1353/12/1
f 1475/25/1 1474/26/1 1353/27/1 1354/28/1
f 1476/13/1 1475/14/1 1354/15/1 1355/16/1
f 1477/9/1 1476/10/1 1355/11/1 1356/12/1
f 1478/1/1 1477/2/1 1356/3/1 1357/4/1
f 1479/9/1 1478/10/1 1357/11/1 1358/12/1
f 1480/21/1 1479/22/1 1358/23/1 1359/24/1
f 1481/21/1 1480/22/1 1359/23/1 1360/24/1
f 1482/21/1 1481/22/1 1360/23/1 1361/24/1
f 1483/1/1 1482/2/1 1361/3/1 1362/4/1
f 1484/13/1 1483/14/1 1362/15/1 1363/16/1
f 1485/1/1 1484/2/1 1363/3/1 1364/4/1
f 1486/5/1 1485/6/1 1364/7/1 1365/8/1
f 1487/1/1 1486/2/1 1365/3/1 1366/4/1
f 1488/21/1 1487/22/1 1366/23/1 1367/24/1
f 1489/25/1 1488/26/1 1367/27/1 1368/28/1
f 1490/13/1 1489/14/1 1368/15/1 1369/16/1
f 1491/21/1 1490/22/1 1369/23/1 1370/24/1
f 1492/21/1 1491/22/1 1370/23/1 1371/24/1
f 1493/21/1 1492/22/1 1371/23/1 1372/24/1
f 1494/21/1 1493/22/1 1372/23/1 1373/24/1
f 1495/1/1 1494/2/1 1373/3/1 1374/4/1
f 1496/1/1 1495/2/1 1374/3/1 1375/4/1
f 1497/21/1 1496/22/1 1375/23/1 1376/24/1
f 1498/17/1 1497/18/1 1376/19/1 1377/20/1
f 1499/1/1 1498/2/1 1377/3/1 1378/4/1
f 1500/1/1 1499/2/1 1378/3/1 1379/4/1
f 1501/9/1 1500/10/1 1379/11/1 1380/12/1
f 1502/21/1 1501/22/1 1380/23/1 1381/24/1
f 1503/13/1 1504/14/1 1383/15/1 1382/16/1
f 1505/29/1 1506/30/1 1385/31/1 1384/32/1
f 1507/29/1 1505/30/1 1384/31/1 1386/32/1
f 1508/29/1 1507/30/1 1386/31/1 1387/32/1
f 1509/29/1 1508/30/1 1387/31/1 1388/32/1
f 1510/29/1 1509/30/1 1388/31/1 1389/32/1
f 1511/5/1 1510/6/1 1389/7/1 1390/8/1
f 1512/29/1 1511/30/1 1390/31/1 1391/32/1
f 1513/5/1 1512/6/1 1391/7/1 1392/8/1
f 1514/29/1 1513/30/1 1392/31/1 1393/32/1
f 1515/29/1 1514/30/1 1393/31/1 1394/32/1
f 1516/29/1 1515/30/1 1394/31/1 1395/32/1
f 1517/29/1 1516/30/1 1395/31/1 1396/32/1
f 1518/29/1 1517/30/1 1396/31/1 1397/32/1
f 1519/5/1 1518/6/1 1397/7/1 1398/8/1
f 1520/1/1 1519/2/1 1398/3/1 1399/4/1
f 1521/1/1 1520/2/1 1399/3/1 1400/4/1
f 1522/17/1 1521/18/1 1400/19/1 1401/20/1
f 1523/17/1 1522/18/1 1401/19/1 1402/20/1
f 1524/1/1 1523/2/1 1402/3/1 1403/4/1
f 1525/1/1 1524/2/1 1403/3/1 1404/4/1
f 1526/1/1 1525/2/1 1404/3/1 1405/4/1
f 1527/29/1 1526/30/1 1405/31/1 1406/32/1
f 1528/29/1 1527/30/1 1406/31/1 1407/32/1
f 1529/5/1 1528/6/1 1407/7/1 1408/8/1
f 1530/29/1 1529/30/1 1408/31/1 1409/32/1
f 1531/29/1 1530/30/1 1409/31/1 1410/32/1
f 1532/29/1 1531/30/1 1410/31/1 1411/32/1
f 1533/29/1 1532/30/1 1411/31/1 1412/32/1
f 1534/29/1 1533/30/1 1412/31/1 1413/32/1
f 1535/29/1 1534/30/1 1413/31/1 1414/32/1
f 1536/29/1 1535/30/1 1414/31/1 1415/32/1
f 1537/29/1 1536/30/1 1415/31/1 1416/32/1
f 1538/5/1 1537/6/1 1416/7/1 1417/8/1
f 1539/29/1 1538/30/1 1417/31/1 1418/32/1
f 1540/17/1 1539/18/1 1418/19/1 1419/20/1
f 1541/29/1 1540/30/1 1419/31/1 1420/32/1
f 1542/29/1 1541/30/1 1420/31/1 1421/32/1
f 1543/5/1 1542/6/1 1421/7/1 1422/8/1
f 1544/5/1 1543/6/1 1422/7/1 1423/8/1
f 1545/29/1 1544/30/1 1423/31/1 1424/32/1
f 1546/29/1 1545/30/1 1424/31/1 1425/32/1
f 1547/29/1 1546/30/1 1425/31/1 1426/32/1
f 1548/5/1 1547/6/1 1426/7/1 1427/8/1
f 1549/5/1 1548/6/1 1427/7/1 1428/8/1
f 1550/29/1 1549/30/1 1428/31/1 1429/32/1
f 1551/29/1 1550/30/1 1429/31/1 1430/32/1
f 1552/29/1 1551/30/1 1430/31/1 1431/32/1
f 1553/29/1 1552/30/1 1431/31/1 1432/32/1
f 1554/29/1 1553/30/1 1432/31/1 1433/32/1
f 1555/29/1 1554/30/1 1433/31/1 1434/32/1
f 1556/29/1 1555/30/1 1434/31/1 1435/32/1
f 1557/29/1 1556/30/1 1435/31/1 1436/32/1
f 1558/5/1 1557/6/1 1436/7/1 1437/8/1
f 1559/1/1 1558/2/1 1437/3/1 1438/4/1
f 1560/1/1 1559/2/1 1438/3/1 1439/4/1
f 1561/1/1 1560/2/1 1439/3/1 1440/4/1
f 1562/29/1 1561/30/1 1440/31/1 1441/32/1
f 1563/29/1 1562/30/1 1441/31/1 1442/32/1
f 1564/5/1 1563/6/1 1442/7/1 1443/8/1
f 1565/21/1 1564/22/1 1443/23/1 1444/24/1
f 1566/21/1 1565/22/1 1444/23/1 1445/24/1
f 1567/29/1 1566/30/1 1445/31/1 1446/32/1
f 1568/5/1 1567/6/1 1446/7/1 1447/8/1
f 1569/5/1 1568/6/1 1447/7/1 1448/8/1
f 1570/29/1 1569/30/1 1448/31/1 1449/32/1
f 1571/5/1 1570/6/1 1449/7/1 1450/8/1
f 1572/21/1 1571/22/1 1450/23/1 1451/24/1
f 1573/5/1 1574/6/1 1453/7/1 1452/8/1
f 1575/17/1 1573/18/1 1452/19/1 1454/20/1
f 1576/25/1 1575/26/1 1454/27/1 1455/28/1
f 1577/9/1 1576/10/1 1455/11/1 1456/12/1
f 1578/9/1 1577/10/1 1456/11/1 1457/12/1
f 1579/21/1 1578/22/1 1457/23/1 1458/24/1
f 1580/1/1 1579/2/1 1458/3/1 1459/4/1
f 1581/1/1 1580/2/1 1459/3/1 1460/4/1
f 1582/13/1 1581/14/1 1460/15/1 1461/16/1
f 1583/21/1 1582/22/1 1461/23/1 1462/24/1
f 1584/21/1 1583/22/1 1462/23/1 1463/24/1
f 1585/1/1 1584/2/1 1463/3/1 1464/4/1
f 1586/21/1 1585/22/1 1464/23/1 1465/24/1
f 1587/21/1 1586/22/1 1465/23/1 1466/24/1
f 1588/17/1 1587/18/1 1466/19/1 1467/20/1
f 1589/25/1 1588/26/1 1467/27/1 1468/28/1
f 1590/13/1 1589/14/1 1468/15/1 1469/16/1
f 1591/9/1 1590/10/1 1469/11/1 1470/12/1
f 1592/21/1 1591/22/1 1470/23/1 1471/24/1
f 1593/1/1 1592/2/1 1471/3/1 1472/4/1
f 1594/29/1 1593/30/1 1472/31/1 1473/32/1
f 1595/5/1 1594/6/1 1473/7/1 1474/8/1
f 1596/17/1 1595/18/1 1474/19/1 1475/20/1
f 1597/25/1 1596/26/1 1475/27/1 1476/28/1
f 1598/13/1 1597/14/1 1476/15/1 1477/16/1
f 1599/9/1 1598/10/1 1477/11/1 1478/12/1
f 1600/21/1 1599/22/1 1478/23/1 1479/24/1
f 1601/1/1 1600/2/1 1479/3/1 1480/4/1
f 1602/13/1 1601/14/1 1480/15/1 1481/16/1
f 1603/9/1 1602/10/1 1481/11/1 1482/12/1
f 1604/21/1 1603/22/1 1482/23/1 1483/24/1
f 1605/1/1 1604/2/1 1483/3/1 1484/4/1
f 1606/5/1 1605/6/1 1484/7/1 1485/8/1
f 1607/21/1 1606/22/1 1485/23/1 1486/24/1
f 1608/1/1 1607/2/1 1486/3/1 1487/4/1
f 1609/1/1 1608/2/1 1487/3/1 1488/4/1
f 1610/13/1 1609/14/1 1488/15/1 1489/16/1
f 1611/9/1 1610/10/1 1489/11/1 1490/12/1
f 1612/21/1 1611/22/1 1490/23/1 1491/24/1
f 1613/1/1 1612/2/1 1491/3/1 1492/4/1
f 1614/9/1 1613/10/1 1492/11/1 1493/12/1
f 1615/21/1 1614/22/1 1493/23/1 1494/24/1
f 1616/1/1 1615/2/1 1494/3/1 1495/4/1
f 1617/29/1 1616/30/1 1495/31/1 1496/32/1
f 1618/5/1 1617/6/1 1496/7/1 1497/8/1
f 1619/17/1 1618/18/1 1497/19/1 1498/20/1
f 1620/25/1 1619/26/1 1498/27/1 1499/28/1
f 1621/13/1 1620/14/1 1499/15/1 1500/16/1
f 1622/9/1 1621/10/1 1500/11/1 1501/12/1
f 1623/21/1 1622/22/1 1501/23/1 1502/24/1
f 1624/1/1 1625/2/1 1504/3/1 1503/4/1
f 1626/29/1 1627/30/1 1506/31/1 1505/32/1
f 1628/29/1 1626/30/1 1505/31/1 1507/32/1
f 1629/29/1 1628/30/1 1507/31/1 1508/32/1
f 1630/29/1 1629/30/1 1508/31/1 1509/32/1
f 1631/5/1 1630/6/1 1509/7/1 1510/8/1
f 1632/29/1 1631/30/1 1510/31/1 1511/32/1
f 1633/29/1 1632/30/1 1511/31/1 1512/32/1
f 1634/5/1 1633/6/1 1512/7/1 1513/8/1
f 1635/29/1 1634/30/1 1513/31/1 1514/32/1
f 1636/1/1 1635/2/1 1514/3/1 1515/4/1
f 1637/29/1 1636/30/1 1515/31/1 1516/32/1
f 1638/1/1 1637/2/1 1516/3/1 1517/4/1
f 1639/1/1 1638/2/1 1517/3/1 1518/4/1
f 1640/1/1 1639/2/1 1518/3/1 1519/4/1
f 1641/17/1 1640/18/1 1519/19/1 1520/20/1
f 1642/17/1 1641/18/1 1520/19/1 1521/20/1
f 1643/1/1 1642/2/1 1521/3/1 1522/4/1
f 1644/1/1 1643/2/1 1522/3/1 1523/4/1
f 1645/29/1 1644/30/1 1523/31/1 1524/32/1
f 1646/29/1 1645/30/1 1524/31/1 1525/32/1
f 1647/5/1 1646/6/1 1525/7/1 1526/8/1
f 1648/29/1 1647/30/1 1526/31/1 1527/32/1
f 1649/1/1 1648/2/1 1527/3/1 1528/4/1
f 1650/1/1 1649/2/1 1528/3/1 1529/4/1
f 1651/1/1 1650/2/1 1529/3/1 1530/4/1
f 1652/29/1 1651/30/1 1530/31/1 1531/32/1
f 1653/29/1 1652/30/1 1531/31/1 1532/32/1
f 1654/29/1 1653/30/1 1532/31/1 1533/32/1
f 1655/29/1 1654/30/1 1533/31/1 1534/32/1
f 1656/29/1 1655/30/1 1534/31/1 1535/32/1
f 1657/29/1 1656/30/1 1535/31/1 1536/32/1
f 1658/29/1 1657/30/1 1536/31/1 1537/32/1
f 1659/29/1 1658/30/1 1537/31/1 1538/32/1
f 1660/5/1 1659/6/1 1538/7/1 1539/8/1
f 1661/5/1 1660/6/1 1539/7/1 1540/8/1
f 1662/29/1 1661/30/1 1540/31/1 1541/32/1
f 1663/29/1 1662/30/1 1541/31/1 1542/32/1
f 1664/17/1 1663/18/1 1542/19/1 1543/20/1
f 1665/17/1 1664/18/1 1543/19/1 1544/20/1
f 1666/5/1 1665/6/1 1544/7/1 1545/8/1
f 1667/5/1 1666/6/1 1545/7/1 1546/8/1
f 1668/5/1 1667/6/1 1546/7/1 1547/8/1
f 1669/5/1 1668/6/1 1547/7/1 1548/8/1
f 1670/5/1 1669/6/1 1548/7/1 1549/8/1
f 1671/5/1 1670/6/1 1549/7/1 1550/8/1
f 1672/5/1 1671/6/1 1550/7/1 1551/8/1
f 1673/5/1 1672/6/1 1551/7/1 1552/8/1
f 1674/1/1 1673/2/1 1552/3/1 1553/4/1
f 1675/29/1 1674/30/1 1553/31/1 1554/32/1
f 1676/29/1 1675/30/1 1554/31/1 1555/32/1
f 1677/5/1 1676/6/1 1555/7/1 1556/8/1
f 1678/29/1 1677/30/1 1556/31/1 1557/32/1
f 1679/5/1 1678/6/1 1557/7/1 1558/8/1
f 1680/5/1 1679/6/1 1558/7/1 1559/8/1
f 1681/5/1 1680/6/1 1559/7/1 1560/8/1
f 1682/5/1 1681/6/1 1560/7/1 1561/8/1
f 1683/5/1 1682/6/1 1561/7/1 1562/8/1
f 1684/29/1 1683/30/1 1562/31/1 1563/32/1
f 1685/29/1 1684/30/1 1563/31/1 1564/32/1
f 1686/29/1 1685/30/1 1564/31/1 1565/32/1
f 1687/5/1 1686/6/1 1565/7/1 1566/8/1
f 1688/29/1 1687/30/1 1566/31/1 1567/32/1
f 1689/5/1 1688/6/1 1567/7/1 1568/8/1
f 1690/5/1 1689/6/1 1568/7/1 1569/8/1
f 1691/29/1 1690/30/1 1569/31/1 1570/32/1
f 1692/5/1 1691/6/1 1570/7/1 1571/8/1
f 1693/5/1 1692/6/1 1571/7/1 1572/8/1
f 1694/5/1 1695/6/1 1574/7/1 1573/8/1
f 1696/17/1 1694/18/1 1573/19/1 1575/20/1
f 1697/25/1 1696/26/1 1575/27/1 1576/28/1
f 1698/9/1 1697/10/1 1576/11/1 1577/12/1
f 1699/9/1 1698/10/1 1577/11/1 1578/12/1
f 1700/9/1 1699/10/1 1578/11/1 1579/12/1
f 1701/9/1 1700/10/1 1579/11/1 1580/12/1
f 1702/1/1 1701/2/1 1580/3/1 1581/4/1
f 1703/13/1 1702/14/1 1581/15/1 1582/16/1
f 1704/9/1 1703/10/1 1582/11/1 1583/12/1
f 1705/21/1 1704/22/1 1583/23/1 1584/24/1
f 1706/21/1 1705/22/1 1584/23/1 1585/24/1
f 1707/21/1 1706/22/1 1585/23/1 1586/24/1
f 1708/21/1 1707/22/1 1586/23/1 1587/24/1
f 1709/5/1 1708/6/1 1587/7/1 1588/8/1
f 1710/17/1 1709/18/1 1588/19/1 1589/20/1
f 1711/25/1 1710/26/1 1589/27/1 1590/28/1
f 1712/13/1 1711/14/1 1590/15/1 1591/16/1
f 1713/9/1 1712/10/1 1591/11/1 1592/12/1
f 1714/1/1 1713/2/1 1592/3/1 1593/4/1
f 1715/1/1 1714/2/1 1593/3/1 1594/4/1
f 1716/1/1 1715/2/1 1594/3/1 1595/4/1
f 1717/1/1 1716/2/1 1595/3/1 1596/4/1
f 1718/5/1 1717/6/1 1596/7/1 1597/8/1
f 1719/17/1 1718/18/1 1597/19/1 1598/20/1
f 1720/25/1 1719/26/1 1598/27/1 1599/28/1
f 1721/13/1 1720/14/1 1599/15/1 1600/16/1
f 1722/9/1 1721/10/1 1600/11/1 1601/12/1
f 1723/21/1 1722/22/1 1601/23/1 1602/24/1
f 1724/1/1 1723/2/1 1602/3/1 1603/4/1
f 1725/9/1 1724/10/1 1603/11/1 1604/12/1
f 1726/9/1 1725/10/1 1604/11/1 1605/12/1
f 1727/21/1 1726/22/1 1605/23/1 1606/24/1
f 1728/13/1 1727/14/1 1606/15/1 1607/16/1
f 1729/21/1 1728/22/1 1607/23/1 1608/24/1
f 1730/1/1 1729/2/1 1608/3/1 1609/4/1
f 1731/9/1 1730/10/1 1609/11/1 1610/12/1
f 1732/21/1 1731/22/1 1610/23/1 1611/24/1
f 1733/1/1 1732/2/1 1611/3/1 1612/4/1
f 1734/13/1 1733/14/1 1612/15/1 1613/16/1
f 1735/9/1 1734/10/1 1613/11/1 1614/12/1
f 1736/21/1 1735/22/1 1614/23/1 1615/24/1
f 1737/1/1 1736/2/1 1615/3/1 1616/4/1
f 1738/1/1 1737/2/1 1616/3/1 1617/4/1
f 1739/5/1 1738/6/1 1617/7/1 1618/8/1
f 1740/17/1 1739/18/1 1618/19/1 1619/20/1
f 1741/25/1 1740/26/1 1619/27/1 1620/28/1
f 1742/13/1 1741/14/1 1620/15/1 1621/16/1
f 1743/9/1 1742/10/1 1621/11/1 1622/12/1
f 1744/21/1 1743/22/1 1622/23/1 1623/24/1
f 1745/13/1 1746/14/1 1625/15/1 1624/16/1
f 1747/5/1 1748/6/1 1627/7/1 1626/8/1
f 1749/5/1 1747/6/1 1626/7/1 1628/8/1
f 1750/29/1 1749/30/1 1628/31/1 1629/32/1
f 1751/29/1 1750/30/1 1629/31/1 1630/32/1
f 1752/29/1 1751/30/1 1630/31/1 1631/32/1
f 1753/29/1 1752/30/1 1631/31/1 1632/32/1
f 1754/29/1 1753/30/1 1632/31/1 1633/32/1
f 1755/29/1 1754/30/1 1633/31/1 1634/32/1
f 1756/29/1 1755/30/1 1634/31/1 1635/32/1
f 1757/17/1 1756/18/1 1635/19/1 1636/20/1
f 1758/17/1 1757/18/1 1636/19/1 1637/20/1
f 1759/1/1 1758/2/1 1637/3/1 1638/4/1
f 1760/1/1 1759/2/1 1638/3/1 1639/4/1
f 1761/1/1 1760/2/1 1639/3/1 1640/4/1
f 1762/1/1 1761/2/1 1640/3/1 1641/4/1
f 1763/1/1 1762/2/1 1641/3/1 1642/4/1
f 1764/1/1 1763/2/1 1642/3/1 1643/4/1
f 1765/29/1 1764/30/1 1643/31/1 1644/32/1
f 1766/29/1 1765/30/1 1644/31/1 1645/32/1
f 1767/5/1 1766/6/1 1645/7/1 1646/8/1
f 1768/17/1 1767/18/1 1646/19/1 1647/20/1
f 1769/17/1 1768/18/1 1647/19/1 1648/20/1
f 1770/17/1 1769/18/1 1648/19/1 1649/20/1
f 1771/17/1 1770/18/1 1649/19/1 1650/20/1
f 1772/17/1 1771/18/1 1650/19/1 1651/20/1
f 1773/5/1 1772/6/1 1651/7/1 1652/8/1
f 1774/5/1 1773/6/1 1652/7/1 1653/8/1
f 1775/5/1 1774/6/1 1653/7/1 1654/8/1
f 1776/5/1 1775/6/1 1654/7/1 1655/8/1
f 1777/5/1 1776/6/1 1655/7/1 1656/8/1
f 1778/29/1 1777/30/1 1656/31/1 1657/32/1
f 1779/29/1 1778/30/1 1657/31/1 1658/32/1
f 1780/29/1 1779/30/1 1658/31/1 1659/32/1
f 1781/17/1 1780/18/1 1659/19/1 1660/20/1
f 1782/17/1 1781/18/1 1660/19/1 1661/20/1
f 1783/17/1 1782/18/1 1661/19/1 1662/20/1
f 1784/17/1 1783/18/1 1662/19/1 1663/20/1
f 1785/17/1 1784/18/1 1663/19/1 1664/20/1
f 1786/5/1 1785/6/1 1664/7/1 1665/8/1
f 1787/5/1 1786/6/1 1665/7/1 1666/8/1
f 1788/5/1 1787/6/1 1666/7/1 1667/8/1
f 1789/5/1 1788/6/1 1667/7/1 1668/8/1
f 1790/5/1 1789/6/1 1668/7/1 1669/8/1
f 1791/29/1 1790/30/1 1669/31/1 1670/32/1
f 1792/29/1 1791/30/1 1670/31/1 1671/32/1
f 1793/29/1 1792/30/1 1671/31/1 1672/32/1
f 1794/29/1 1793/30/1 1672/31/1 1673/32/1
f 1795/29/1 1794/30/1 1673/31/1 1674/32/1
f 1796/5/1 1795/6/1 1674/7/1 1675/8/1
f 1797/5/1 1796/6/1 1675/7/1 1676/8/1
f 1798/5/1 1797/6/1 1676/7/1 1677/8/1
f 1799/5/1 1798/6/1 1677/7/1 1678/8/1
f 1800/29/1 1799/30/1 1678/31/1 1679/32/1
f 1801/29/1 1800/30/1 1679/31/1 1680/32/1
f 1802/29/1 1801/30/1 1680/31/1 1681/32/1
f 1803/5/1 1802/6/1 1681/7/1 1682/8/1
f 1804/5/1 1803/6/1 1682/7/1 1683/8/1
f 1805/5/1 1804/6/1 1683/7/1 1684/8/1
f 1806/5/1 1805/6/1 1684/7/1 1685/8/1
f 1807/5/1 1806/6/1 1685/7/1 1686/8/1
f 1808/5/1 1807/6/1 1686/7/1 1687/8/1
f 1809/5/1 1808/6/1 1687/7/1 1688/8/1
f 1810/29/1 1809/30/1 1688/31/1 1689/32/1
f 1811/5/1 1810/6/1 1689/7/1 1690/8/1
f 1812/29/1 1811/30/1 1690/31/1 1691/32/1
f 1813/5/1 1812/6/1 1691/7/1 1692/8/1
f 1814/5/1 1813/6/1 1692/7/1 1693/8/1
f 1815/5/1 1816/6/1 1695/7/1 1694/8/1
f 1817/17/1 1815/18/1 1694/19/1 1696/20/1
f 1818/25/1 1817/26/1 1696/27/1 1697/28/1
f 1819/9/1 1818/10/1 1697/11/1 1698/12/1
f 1820/9/1 1819/10/1 1698/11/1 1699/12/1
f 1821/21/1 1820/22/1 1699/23/1 1700/24/1
f 1822/1/1 1821/2/1 1700/3/1 1701/4/1
f 1823/1/1 1822/2/1 1701/3/1 1702/4/1
f 1824/1/1 1823/2/1 1702/3/1 1703/4/1
f 1825/21/1 1824/22/1 1703/23/1 1704/24/1
f 1826/1/1 1825/2/1 1704/3/1 1705/4/1
f 1827/1/1 1826/2/1 1705/3/1 1706/4/1
f 1828/21/1 1827/22/1 1706/23/1 1707/24/1
f 1829/1/1 1828/2/1 1707/3/1 1708/4/1
f 1830/1/1 1829/2/1 1708/3/1 1709/4/1
f 1831/1/1 1830/2/1 1709/3/1 1710/4/1
f 1832/25/1 1831/26/1 1710/27/1 1711/28/1
f 1833/13/1 1832/14/1 1711/15/1 1712/16/1
f 1834/9/1 1833/10/1 1712/11/1 1713/12/1
f 1835/21/1 1834/22/1 1713/23/1 1714/24/1
f 1836/1/1 1835/2/1 1714/3/1 1715/4/1
f 1837/1/1 1836/2/1 1715/3/1 1716/4/1
f 1838/1/1 1837/2/1 1716/3/1 1717/4/1
f 1839/1/1 1838/2/1 1717/3/1 1718/4/1
f 1840/1/1 1839/2/1 1718/3/1 1719/4/1
f 1841/1/1 1840/2/1 1719/3/1 1720/4/1
f 1842/1/1 1841/2/1 1720/3/1 1721/4/1
f 1843/13/1 1842/14/1 1721/15/1 1722/16/1
f 1844/9/1 1843/10/1 1722/11/1 1723/12/1
f 1845/21/1 1844/22/1 1723/23/1 1724/24/1
f 1846/1/1 1845/2/1 1724/3/1 1725/4/1
f 1847/9/1 1846/10/1 1725/11/1 1726/12/1
f 1848/1/1 1847/2/1 1726/3/1 1727/4/1
f 1849/1/1 1848/2/1 1727/3/1 1728/4/1
f 1850/21/1 1849/22/1 1728/23/1 1729/24/1
f 1851/1/1 1850/2/1 1729/3/1 1730/4/1
f 1852/1/1 1851/2/1 1730/3/1 1731/4/1
f 1853/9/1 1852/10/1 1731/11/1 1732/12/1
f 1854/21/1 1853/22/1 1732/23/1 1733/24/1
f 1855/1/1 1854/2/1 1733/3/1 1734/4/1
f 1856/13/1 1855/14/1 1734/15/1 1735/16/1
f 1857/9/1 1856/10/1 1735/11/1 1736/12/1
f 1858/21/1 1857/22/1 1736/23/1 1737/24/1
f 1859/1/1 1858/2/1 1737/3/1 1738/4/1
f 1860/1/1 1859/2/1 1738/3/1 1739/4/1
f 1861/1/1 1860/2/1 1739/3/1 1740/4/1
f 1862/13/1 1861/14/1 1740/15/1 1741/16/1
f 1863/9/1 1862/10/1 1741/11/1 1742/12/1
f 1864/21/1 1863/22/1 1742/23/1 1743/24/1
f 1865/1/1 1864/2/1 1743/3/1 1744/4/1
f 1866/1/1 1867/2/1 1746/3/1 1745/4/1
f 1868/29/1 1869/30/1 1748/31/1 1747/32/1
f 1870/5/1 1868/6/1 1747/7/1 1749/8/1
f 1871/29/1 1870/30/1 1749/31/1 1750/32/1
f 1872/29/1 1871/30/1 1750/31/1 1751/32/1
f 1873/29/1 1872/30/1 1751/31/1 1752/32/1
f 1874/5/1 1873/6/1 1752/7/1 1753/8/1
f 1875/29/1 1874/30/1 1753/31/1 1754/32/1
f 1876/29/1 1875/30/1 1754/31/1 1755/32/1
f 1877/17/1 1876/18/1 1755/19/1 1756/20/1
f 1878/17/1 1877/18/1 1756/19/1 1757/20/1
f 1879/29/1 1878/30/1 1757/31/1 1758/32/1
f 1880/29/1 1879/30/1 1758/31/1 1759/32/1
f 1881/5/1 1880/6/1 1759/7/1 1760/8/1
f 1882/5/1 1881/6/1 1760/7/1 1761/8/1
f 1883/5/1 1882/6/1 1761/7/1 1762/8/1
f 1884/5/1 1883/6/1 1762/7/1 1763/8/1
f 1885/5/1 1884/6/1 1763/7/1 1764/8/1
f 1886/5/1 1885/6/1 1764/7/1 1765/8/1
f 1887/29/1 1886/30/1 1765/31/1 1766/32/1
f 1888/5/1 1887/6/1 1766/7/1 1767/8/1
f 1889/5/1 1888/6/1 1767/7/1 1768/8/1
f 1890/5/1 1889/6/1 1768/7/1 1769/8/1
f 1891/5/1 1890/6/1 1769/7/1 1770/8/1
f 1892/5/1 1891/6/1 1770/7/1 1771/8/1
f 1893/17/1 1892/18/1 1771/19/1 1772/20/1
f 1894/17/1 1893/18/1 1772/19/1 1773/20/1
f 1895/17/1 1894/18/1 1773/19/1 1774/20/1
f 1896/17/1 1895/18/1 1774/19/1 1775/20/1
f 1897/5/1 1896/6/1 1775/7/1 1776/8/1
f 1898/5/1 1897/6/1 1776/7/1 1777/8/1
f 1899/29/1 1898/30/1 1777/31/1 1778/32/1
f 1900/5/1 1899/6/1 1778/7/1 1779/8/1
f 1901/5/1 1900/6/1 1779/7/1 1780/8/1
f 1902/5/1 1901/6/1 1780/7/1 1781/8/1
f 1903/5/1 1902/6/1 1781/7/1 1782/8/1
f 1904/5/1 1903/6/1 1782/7/1 1783/8/1
f 1905/29/1 1904/30/1 1783/31/1 1784/32/1
f 1906/29/1 1905/30/1 1784/31/1 1785/32/1
f 1907/29/1 1906/30/1 1785/31/1 1786/32/1
f 1908/29/1 1907/30/1 1786/31/1 1787/32/1
f 1909/5/1 1908/6/1 1787/7/1 1788/8/1
f 1910/29/1 1909/30/1 1788/31/1 1789/32/1
f 1911/5/1 1910/6/1 1789/7/1 1790/8/1
f 1912/5/1 1911/6/1 1790/7/1 1791/8/1
f 1913/5/1 1912/6/1 1791/7/1 1792/8/1
f 1914/5/1 1913/6/1 1792/7/1 1793/8/1
f 1915/5/1 1914/6/1 1793/7/1 1794/8/1
f 1916/5/1 1915/6/1 1794/7/1 1795/8/1
f 1917/5/1 1916/6/1 1795/7/1 1796/8/1
f 1918/5/1 1917/6/1 1796/7/1 1797/8/1
f 1919/5/1 1918/6/1 1797/7/1 1798/8/1
f 1920/5/1 1919/6/1 1798/7/1 1799/8/1
f 1921/5/1 1920/6/1 1799/7/1 1800/8/1
f 1922/5/1 1921/6/1 1800/7/1 1801/8/1
f 1923/5/1 1922/6/1 1801/7/1 1802/8/1
f 1924/5/1 1923/6/1 1802/7/1 1803/8/1
f 1925/5/1 1924/6/1 1803/7/1 1804/8/1
f 1926/5/1 1925/6/1 1804/7/1 1805/8/1
f 1927/5/1 1926/6/1 1805/7/1 1806/8/1
f 1928/5/1 1927/6/1 1806/7/1 1807/8/1
f 1929/29/1 1928/30/1 1807/31/1 1808/32/1
f 1930/5/1 1929/6/1 1808/7/1 1809/8/1
f 1931/29/1 1930/30/1 1809/31/1 1810/32/1
f 1932/5/1 1931/6/1 1810/7/1 1811/8/1
f 1933/29/1 1932/30/1 1811/31/1 1812/32/1
f 1934/5/1 1933/6/1 1812/7/1 1813/8/1
f 1935/5/1 1934/6/1 1813/7/1 1814/8/1
f 1936/29/1 1937/30/1 1816/31/1 1815/32/1
f 1938/29/1 1936/30/1 1815/31/1 1817/32/1
f 1939/5/1 1938/6/1 1817/7/1 1818/8/1
f 1940/17/1 1939/18/1 1818/19/1 1819/20/1
f 1941/25/1 1940/26/1 1819/27/1 1820/28/1
f 1942/13/1 1941/14/1 1820/15/1 1821/16/1
f 1943/9/1 1942/10/1 1821/11/1 1822/12/1
f 1944/21/1 1943/22/1 1822/23/1 1823/24/1
f 1945/1/1 1944/2/1 1823/3/1 1824/4/1
f 1946/1/1 1945/2/1 1824/3/1 1825/4/1
f 1947/1/1 1946/2/1 1825/3/1 1826/4/1
f 1948/25/1 1947/26/1 1826/27/1 1827/28/1
f 1949/13/1 1948/14/1 1827/15/1 1828/16/1
f 1950/9/1 1949/10/1 1828/11/1 1829/12/1
f 1951/21/1 1950/22/1 1829/23/1 1830/24/1
f 1952/1/1 1951/2/1 1830/3/1 1831/4/1
f 1953/1/1 1952/2/1 1831/3/1 1832/4/1
f 1954/1/1 1953/2/1 1832/3/1 1833/4/1
f 1955/1/1 1954/2/1 1833/3/1 1834/4/1
f 1956/1/1 1955/2/1 1834/3/1 1835/4/1
f 1957/1/1 1956/2/1 1835/3/1 1836/4/1
f 1958/17/1 1957/18/1 1836/19/1 1837/20/1
f 1959/25/1 1958/26/1 1837/27/1 1838/28/1
f 1960/13/1 1959/14/1 1838/15/1 1839/16/1
f 1961/9/1 1960/10/1 1839/11/1 1840/12/1
f 1962/21/1 1961/22/1 1840/23/1 1841/24/1
f 1963/1/1 1962/2/1 1841/3/1 1842/4/1
f 1964/1/1 1963/2/1 1842/3/1 1843/4/1
f 1965/1/1 1964/2/1 1843/3/1 1844/4/1
f 1966/1/1 1965/2/1 1844/3/1 1845/4/1
f 1967/1/1 1966/2/1 1845/3/1 1846/4/1
f 1968/9/1 1967/10/1 1846/11/1 1847/12/1
f 1969/13/1 1968/14/1 1847/15/1 1848/16/1
f 1970/9/1 1969/10/1 1848/11/1 1849/12/1
f 1971/9/1 1970/10/1 1849/11/1 1850/12/1
f 1972/21/1 1971/22/1 1850/23/1 1851/24/1
f 1973/1/1 1972/2/1 1851/3/1 1852/4/1
f 1974/1/1 1973/2/1 1852/3/1 1853/4/1
f 1975/1/1 1974/2/1 1853/3/1 1854/4/1
f 1976/1/1 1975/2/1 1854/3/1 1855/4/1
f 1977/1/1 1976/2/1 1855/3/1 1856/4/1
f 1978/1/1 1977/2/1 1856/3/1 1857/4/1
f 1979/13/1 1978/14/1 1857/15/1 1858/16/1
f 1980/9/1 1979/10/1 1858/11/1 1859/12/1
f 1981/21/1 1980/22/1 1859/23/1 1860/24/1
f 1982/1/1 1981/2/1 1860/3/1 1861/4/1
f 1983/1/1 1982/2/1 1861/3/1 1862/4/1
f 1984/1/1 1983/2/1 1862/3/1 1863/4/1
f 1985/1/1 1984/2/1 1863/3/1 1864/4/1
f 1986/1/1 1985/2/1 1864/3/1 1865/4/1
f 1987/13/1 1988/14/1 1867/15/1 1866/16/1
f 1989/5/1 1990/6/1 1869/7/1 1868/8/1
f 1991/5/1 1989/6/1 1868/7/1 1870/8/1
f 1992/29/1 1991/30/1 1870/31/1 1871/32/1
f 1993/29/1 1992/30/1 1871/31/1 1872/32/1
f 1994/5/1 1993/6/1 1872/7/1 1873/8/1
f 1995/29/1 1994/30/1 1873/31/1 1874/32/1
f 1996/29/1 1995/30/1 1874/31/1 1875/32/1
f 1997/5/1 1996/6/1 1875/7/1 1876/8/1
f 1998/29/1 1997/30/1 1876/31/1 1877/32/1
f 1999/5/1 1998/6/1 1877/7/1 1878/8/1
f 2000/29/1 1999/30/1 1878/31/1 1879/32/1
f 2001/29/1 2000/30/1 1879/31/1 1880/32/1
f 2002/29/1 2001/30/1 1880/31/1 1881/32/1
f 2003/29/1 2002/30/1 1881/31/1 1882/32/1
f 2004/29/1 2003/30/1 1882/31/1 1883/32/1
f 2005/29/1 2004/30/1 1883/31/1 1884/32/1
f 2006/29/1 2005/30/1 1884/31/1 1885/32/1
f 2007/29/1 2006/30/1 1885/31/1 1886/32/1
f 2008/29/1 2007/30/1 1886/31/1 1887/32/1
f 2009/29/1 2008/30/1 1887/31/1 1888/32/1
f 2010/29/1 2009/30/1 1888/31/1 1889/32/1
f 2011/29/1 2010/30/1 1889/31/1 1890/32/1
f 2012/29/1 2011/30/1 1890/31/1 1891/32/1
f 2013/5/1 2012/6/1 1891/7/1 1892/8/1
f 2014/5/1 2013/6/1 1892/7/1 1893/8/1
f 2015/5/1 2014/6/1 1893/7/1 1894/8/1
f 2016/5/1 2015/6/1 1894/7/1 1895/8/1
f 2017/5/1 2016/6/1 1895/7/1 1896/8/1
f 2018/5/1 2017/6/1 1896/7/1 1897/8/1
f 2019/5/1 2018/6/1 1897/7/1 1898/8/1
f 2020/5/1 2019/6/1 1898/7/1 1899/8/1
f 2021/5/1 2020/6/1 1899/7/1 1900/8/1
f 2022/5/1 2021/6/1 1900/7/1 1901/8/1
f 2023/5/1 2022/6/1 1901/7/1 1902/8/1
f 2024/5/1 2023/6/1 1902/7/1 1903/8/1
f 2025/5/1 2024/6/1 1903/7/1 1904/8/1
f 2026/5/1 2025/6/1 1904/7/1 1905/8/1
f 2027/5/1 2026/6/1 1905/7/1 1906/8/1
f 2028/5/1 2027/6/1 1906/7/1 1907/8/1
f 2029/5/1 2028/6/1 1907/7/1 1908/8/1
f 2030/5/1 2029/6/1 1908/7/1 1909/8/1
f 2031/29/1 2030/30/1 1909/31/1 1910/32/1
f 2032/29/1 2031/30/1 1910/31/1 1911/32/1
f 2033/29/1 2032/30/1 1911/31/1 1912/32/1
f 2034/29/1 2033/30/1 1912/31/1 1913/32/1
f 2035/29/1 2034/30/1 1913/31/1 1914/32/1
f 2036/29/1 2035/30/1 1914/31/1 1915/32/1
f 2037/29/1 2036/30/1 1915/31/1 1916/32/1
f 2038/29/1 2037/30/1 1916/31/1 1917/32/1
f 2039/29/1 2038/30/1 1917/31/1 1918/32/1
f 2040/29/1 2039/30/1 1918/31/1 1919/32/1
f 2041/29/1 2040/30/1 1919/31/1 1920/32/1
f 2042/29/1 2041/30/1 1920/31/1 1921/32/1
f 2043/29/1 2042/30/1 1921/31/1 1922/32/1
f 2044/29/1 2043/30/1 1922/31/1 1923/32/1
f 2045/29/1 2044/30/1 1923/31/1 1924/32/1
f 2046/29/1 2045/30/1 1924/31/1 1925/32/1
f 2047/29/1 2046/30/1 1925/31/1 1926/32/1
f 2048/29/1 2047/30/1 1926/31/1 1927/32/1
f 2049/5/1 2048/6/1 1927/7/1 1928/8/1
f 2050/5/1 2049/6/1 1928/7/1 1929/8/1
f 2051/5/1 2050/6/1 1929/7/1 1930/8/1
f 2052/29/1 2051/30/1 1930/31/1 1931/32/1
f 2053/5/1 2052/6/1 1931/7/1 1932/8/1
f 2054/29/1 2053/30/1 1932/31/1 1933/32/1
f 2055/29/1 2054/30/1 1933/31/1 1934/32/1
f 2056/29/1 2055/30/1 1934/31/1 1935/32/1

