%YAML 1.1
%TAG !u! tag:unity3d.com,2011:
--- !u!1045 &1
EditorBuildSettings:
  m_ObjectHideFlags: 0
  serializedVersion: 2
  m_Scenes:
  - enabled: 1
    path: Assets/Kamil/_Scenes/Menu.unity
  - enabled: 1
    path: Assets/Kamil/_Scenes/Kamil_scene.unity
  - enabled: 1
    path: Assets/Kamil/_Scenes/Level2.unity
  - enabled: 1
    path: Assets/Kamil/_Scenes/Level3.unity
  - enabled: 1
    path: Assets/Kamil/_Scenes/Boss_Arena.unity
