%YAML 1.1
%TAG !u! tag:unity3d.com,2011:
--- !u!78 &1
TagManager:
  serializedVersion: 2
  tags:
  - PlayerForWalker
  - Ground
  - Enemy
  - ChangingDirection
  - PulseLight
  - Boss
  - Shield
  - DamagingPlayer
  - DamagingEnemy
  - Undestructable
  - MenuPlayer
  - Congrats
  layers:
  - Default
  - TransparentFX
  - Ignore Raycast
  - 
  - Water
  - UI
  - 
  - 
  - Ground
  - Player
  - Enemy
  - Non_rendering
  - Boss
  - 
  - 
  - 
  - 
  - 
  - 
  - 
  - 
  - 
  - 
  - 
  - 
  - 
  - 
  - 
  - 
  - 
  - 
  - 
  m_SortingLayers:
  - name: Default
    uniqueID: 0
    locked: 0
  - name: Player
    uniqueID: 664670057
    locked: 0
